12
Energy = -414.4768035981
O     4.6250075   -0.2209658   -3.7428642 
C     3.7294248    0.0355875   -2.7764470 
C     3.5280041   -0.9133826   -1.7645011 
H     4.0864600   -1.8396449   -1.7628143 
C     2.6079561   -0.6054433   -0.8059854 
H     4.6152486    0.5420960   -4.3326715 
C     1.9556302    0.6293147   -0.9284153 
N     3.0838771    1.1754005   -2.8335447 
N     2.1907191    1.4743820   -1.9029573 
H     2.3776190   -1.2676703    0.0175454 
H     0.7140064    1.8480463   -0.2678848 
O     1.0415711    0.9784626   -0.0094682 
