16
Energy = -396.7396380905
C    -4.1588428    0.0787652   -2.8508577 
H    -4.8925171   -0.1054337   -3.5973599 
C    -3.3184793    0.2759165   -2.0048135 
C    -2.3787486    0.5188992   -1.0022526 
N    -1.0103514    0.6747275   -1.2421187 
H    -0.6227915    0.8546717   -2.1493246 
H     1.5488684    0.5201913   -0.5636686 
H    -4.5596168    0.4810272    0.4492920 
C    -2.5575696    0.6216032    0.3666327 
N    -3.7468565    0.4182744    1.0426098 
H    -3.8518953    0.9805866    1.8708759 
H     1.3425002    1.3060166    0.8726781 
N     0.9874919    1.1939759   -0.0630928 
C    -0.3701161    0.9036039   -0.0748372 
C    -1.2891260    0.8613411    0.9526133 
H    -1.0684543    0.9439819    2.0049405 
