11
Energy = -488.3540988809
H    -2.4598624    1.7231464   -3.6194005 
C    -1.8309622    1.9700632   -2.7677144 
O    -2.6505309    2.0982612   -1.7069012 
N    -2.2859212    2.2671536   -0.3837170 
N    -0.5930448    2.1405160   -2.9263470 
O     1.2820588    3.1108398   -2.0493711 
C     0.3544781    2.3617492   -1.9504893 
C     0.1158788    1.5305233   -0.6962696 
H    -1.0131093    2.0693508    1.1002209 
C    -1.1223469    1.9575530    0.0241226 
O     0.8585953    0.6969936   -0.2644015 
