14
Energy = -473.6212667554
O     4.9423048    1.4812422   -3.0770765 
H     5.6153787    1.4180286   -1.1566840 
H     0.5302900    1.2341993   -4.4899608 
N     2.2445787    1.2899939   -3.2364045 
C     0.9100242    1.1961870   -3.4836304 
C     0.2486774    1.0577347   -2.2873524 
C     2.4410277    1.2107300   -1.8870422 
C     1.2256740    1.0671066   -1.2671136 
H     2.9953410    1.3924834   -3.8949288 
C     4.8013825    1.3981106   -1.8898260 
O     3.6454743    1.2677077   -1.2377893 
H     1.7981785    0.9909012    0.5409188 
O     0.9699213    0.9540742    0.0586900 
H    -0.8144502    0.9601326   -2.1456394 
