16
Energy = -437.5486796490
H     2.8231443    0.1734956    0.1903804 
H     4.4170769    0.1160303   -2.4787635 
C     3.4876541    3.1178821   -1.7614116 
H     5.4338620    2.8184921   -4.3828261 
O     4.5269148    2.9517071   -4.0964972 
C     4.4025617    2.5323319   -2.8104337 
H     2.8337569    3.9725688   -1.8364148 
C     4.9763982    3.0231526   -1.5167102 
N     4.8403247    1.6584289   -0.8784687 
C     4.2588761    1.1364340   -2.1508210 
C     3.3708757    1.7258060   -1.1138878 
H     5.7186751    3.7645221   -1.2556749 
C     2.3828344    1.1004939   -0.2010763 
H     2.1897421    1.7569395    0.6503767 
O     1.1337425    0.8801310   -0.8187098 
H     1.2835904    0.3721856   -1.6183297 
