16
Energy = -471.0235573157
N     1.1101998    1.0278303   -0.2716376 
C    -0.1065441    1.7071110   -0.1432701 
C    -1.0673297    1.8034992    0.8182206 
C    -1.1440348    1.1617870    2.1535113 
O    -2.2715179    0.3159934    2.2738955 
N    -2.1085240    2.6047115    0.3796743 
C    -1.7651761    2.9796772   -0.8163716 
O    -2.4610074    3.7732657   -1.6364295 
N    -0.5748266    2.4855983   -1.1981176 
H    -0.1078886    2.6246919   -2.0760280 
H     1.8348971    1.3867419    0.3323876 
H     1.0187491    0.0337820   -0.1236128 
H    -1.1644818    1.9347154    2.9337538 
H    -0.2604048    0.5438945    2.3238605 
H    -3.0144667    0.8001630    1.9047341 
H    -3.2627696    4.0191655   -1.1654302 
