14
Energy = -395.6102715444
C    -0.2515700    0.9493025   -0.5997405 
H    -0.3310746    0.9669522   -1.6745480 
C    -1.2334230    0.8920607    0.3433358 
H    -2.2929523    0.8536814    0.1511078 
H     1.8739242    1.0308345   -0.4532730 
N     0.9833740    0.9864749    0.0073958 
C    -0.5749479    0.8935605    1.6108977 
C     1.2963316    0.9302938    3.5128458 
H    -1.9478977    0.8058175    3.2886153 
C    -0.9139350    0.8534406    2.9581456 
N     0.0179946    0.8717416    3.9001732 
C     0.8136458    0.9535870    1.3557909 
N     1.7655085    0.9732953    2.2741085 
H     2.0352119    0.9440185    4.3072627 
