14
Energy = -477.8170973871
H    -4.2123085    0.8915499   -0.1887168 
C    -2.3534505    0.6804454    0.9054998 
H    -2.2623853    0.1161506    2.6719210 
O    -2.9619150    0.2672843    2.0270808 
C    -2.4401124    1.3945275   -1.3168120 
F    -3.1210882    1.6985453   -2.4212237 
C    -3.1372116    0.9795412   -0.2016564 
H     1.3733935    0.8320133    0.7353772 
N    -1.0355635    0.7671636    0.9412093 
C    -1.0671933    1.5090768   -1.3370286 
H    -0.5506265    1.8474594   -2.2236668 
H     1.4994644    1.3004825   -0.8974586 
N     0.9591718    1.2982068   -0.0523023 
C    -0.3978509    1.1780583   -0.1565129 
