15
Energy = -490.8555046008
H     1.0877190    0.4448769    0.7181667 
O    -0.4417479    0.9303241   -0.4878297 
H     1.3671203    0.0459258   -0.9998464 
C    -2.1199574    1.5337762   -2.0818456 
H    -3.6484623    0.4749408   -1.2965091 
N    -3.3735560    1.4149700   -1.5349474 
H    -3.5716762    2.0504625   -0.7779981 
O    -2.0286998    1.9711346   -3.4232482 
C    -0.8357821    1.3445315   -1.6951319 
H     1.4752337    1.7310859   -0.4586349 
C     0.9567886    0.7828782   -0.3072358 
H    -1.1127630    2.5781645   -5.4075129 
C    -0.7299677    1.9904570   -3.6745593 
N     0.0480675    1.6355324   -2.7107299 
O    -0.3353850    2.3683245   -4.8824365 
