13
Energy = -485.9043004521
O     0.9099434    0.9705335   -0.0120097 
C    -0.4113380    1.0731383   -0.0140331 
N    -1.0617510    1.1958047    1.0863028 
C    -2.4347819    1.2979830    1.0136975 
O    -3.1579059    1.4156489    1.9678288 
N    -2.9924700    1.2589259   -0.2737460 
C    -2.3113277    1.1282863   -1.4578810 
N    -2.7516734    1.0862647   -2.6442632 
H    -3.7609343    1.1637381   -2.6831428 
N    -0.9418878    1.0332333   -1.2513300 
H     1.1835531    1.0094611    0.9126690 
H    -3.9954209    1.3355120   -0.3040120 
H    -0.3605154    0.9350591   -2.0672157 
