12
Energy = -509.8521747055
F     0.9484007    0.9601174   -0.0776143 
C     1.5512628    0.9780155   -1.2472354 
N     1.7222668    2.0810485   -1.8381002 
N     2.3576649    1.9882561   -3.0456484 
C     2.8109083    0.8674728   -3.6594397 
O     3.3657282    0.8666399   -4.7353261 
C     2.5750424   -0.4119879   -2.8985825 
N     2.9241432   -1.5525181   -3.3020241 
H     3.3790321   -1.4471207   -4.2072768 
N     1.9271132   -0.2459966   -1.6855143 
H     2.4922680    2.8684812   -3.5156737 
H     1.7396294   -1.0656301   -1.1277814 
