16
Energy = -471.0093212537
H    -1.8099562   -3.8750373   -2.0260911 
N    -0.8591277   -1.8043597   -1.3332422 
H    -0.9713304    0.3294874   -0.1483972 
N    -0.0875646    0.3239984   -0.6298523 
C     0.1911014   -0.9168246   -1.1398944 
H     2.9992167   -0.9217125   -2.5882012 
H     1.4266283    0.5901043    0.8416072 
O    -0.8722245   -3.9707346   -2.2186513 
C    -0.2906809   -2.8365173   -1.8551378 
O     1.0081026   -2.7691278   -2.0439833 
C     1.3567981   -1.4768791   -1.5554077 
N     2.6627419   -1.0543938   -1.6444957 
H     3.3224838   -1.6080980   -1.1171278 
H     1.7411316    1.3188024   -0.7335537 
H     0.5353621    2.0439532    0.3356536 
C     0.9574634    1.1007703   -0.0095319 
