11
Energy = -529.6816885928
H     1.5409239    0.0105668   -0.1488855 
F    -0.6883369    0.6550731    5.0565692 
C     0.9585233   -0.3862840    2.2063624 
N     0.5098157   -0.3991004    3.5018243 
O     1.6560598   -1.2363530    1.7124234 
C    -0.2185421    0.5855526    3.8426223 
C     0.5225567    0.7913719    1.3843239 
O    -0.6191117    1.6210939    3.1614025 
N    -0.2255323    1.7515348    1.8182741 
H     0.7345500    1.5246744   -0.5138467 
N     0.9700874    0.7908836    0.1270939 
