16
Energy = -471.0091439023
H    -0.4363385   -0.1944224   -0.7594042 
O     0.9037501   -2.4290805   -0.3755101 
H     1.2325600   -3.3333263   -0.3505183 
C    -0.2270920    0.2116636    0.2306743 
C     0.9798022    1.1291603    0.1970286 
C     0.5041690   -2.1322602    0.8629320 
H     1.8651522    0.5908463   -0.1433579 
H    -1.1158946    0.7481639    0.5640691 
H     1.1820191    1.5381210    1.1876483 
H     0.8006818    1.9604424   -0.4864529 
C    -0.3068226   -0.9938596    2.4595850 
H    -0.9817198   -0.2250775    4.0085108 
O    -0.8579525    0.0439112    3.0926908 
N    -0.0443834   -0.9122764    1.1245788 
N     0.0283494   -2.1355414    2.9585350 
N     0.5601952   -2.8821394    1.9114123 
