14
Energy = -415.7029168290
H     1.1097896    0.4696197    0.5512508 
H    -1.1187433    1.6170490   -0.6852081 
C    -0.9470552    1.4052123    1.4224815 
H    -3.1704652    1.4051695    1.2537618 
C    -2.2488132    1.3275935    1.8033972 
H     0.1318611    2.6210968    0.0580376 
C    -0.3440550    1.6307396    0.0830864 
O     0.5953241    0.6291074   -0.2445385 
C    -0.9206701    1.0404070    3.5201670 
O    -0.5809335    0.8183916    4.7921878 
N    -0.1173313    1.2206603    2.5146363 
H     0.3800080    0.8223047    4.8279775 
N    -2.2195822    1.0986164    3.1698398 
H    -3.0013907    0.9839833    3.7880310 
