14
Energy = -465.9525758249
N    -2.3809651    2.2700855   -2.7395614 
C    -1.8391949    2.2474239   -1.5994803 
H    -1.8465120    1.7393437   -3.4244266 
N    -0.6565189    1.5874510   -1.2841070 
H    -0.1751175    1.0805071   -2.0087887 
N    -3.5415983    3.6109528   -0.6094049 
H    -3.8551860    4.0517099    0.2532011 
C    -2.4596195    2.9674713   -0.4364308 
H    -2.1283692    3.3117033    1.5572534 
N    -1.7670016    2.8499962    0.7426867 
N    -0.5950115    2.1796086    0.9725114 
C    -0.1053867    1.5893116   -0.0387748 
H     1.3444894    0.9519592    0.9449205 
O     1.0364376    0.8924988    0.0348738 
