14
Energy = -473.5045934389
N     5.2241756    4.1434844   -2.5449721 
C     4.5627906    3.6358573   -1.7536974 
O     2.4754010    2.1071020   -1.9704887 
H     1.5826852    3.9290052   -1.1199224 
H     0.8497920    0.9602582   -0.9566810 
C     2.2420244    3.0905987   -0.9036679 
H     3.9062065    0.7374786   -1.0035626 
C     3.3046700    1.6310225   -0.8516614 
C     3.7758158    3.0819355   -0.6566458 
H     4.5694045    4.3216291    0.5960304 
O     4.2986513    3.4007490    0.5878084 
H     2.3229489    2.1053382    1.1389208 
C     2.1082991    1.9132713    0.0916090 
O     1.0020850    1.1045889   -0.0158322 
