15
Energy = -412.7778584274
C    -2.1551842   -2.3911205   -0.4448718 
N    -3.2162746   -2.3381550   -1.1341397 
H    -4.0287519   -2.3605040   -0.5205413 
N    -0.9084104   -2.4444304   -1.0399741 
N     0.8224570    0.5697659   -0.1164648 
H     0.9473610   -1.6992506   -1.3030329 
C    -0.0062498   -1.5782525   -0.7872315 
C    -0.0916199   -0.4459248    0.1141658 
H     0.9630942    0.8118032   -1.0835722 
N    -1.5507998   -1.5390553    1.7448913 
C    -2.0834242   -2.4556728    1.0365333 
H    -2.5373408   -3.3061216    1.5430755 
H     0.7170007    1.3836038    0.4666842 
H    -0.8059222    0.3751417    1.9160640 
C    -0.8607058   -0.4747531    1.2404370 
