16
Energy = -437.7197701502
H     1.4445060    0.2370423   -0.6023386 
H    -1.5553232    1.3791123   -3.2064977 
H    -3.3873696    1.1879709   -1.3258605 
C    -1.1961826    1.1705251   -1.1170820 
C    -2.5213116    1.1250912   -0.6842660 
C    -0.7297322    1.3065727   -2.4699365 
O     0.4295611    1.3442770   -2.8299490 
H     1.4421221    1.9895258   -0.4309431 
H    -4.3472560    0.9408453    1.1033245 
C    -2.4922492    0.9862924    0.7049825 
O    -3.5199772    0.8973936    1.5836145 
C    -1.1618474    0.9500410    1.0898523 
H     1.3892519    0.9627207    1.0220797 
N    -0.3892489    1.0620341   -0.0172129 
C     1.0561815    1.0631664   -0.0091988 
H    -0.7318066    0.8526582    2.0729286 
