14
Energy = -395.5697711772
H     0.8475798    0.5186038   -0.8096714 
H     2.7212631    0.0005316    0.4943751 
H    -0.7760398    2.1019054   -0.3363718 
C     0.0321076    1.9848883    0.3761076 
N     0.9696012    1.0307786    0.0466139 
N     0.0799062    2.7020622    1.4413381 
C     1.1313037    2.4831527    2.2742787 
C     2.1636040    1.4816597    1.9811139 
C     2.0380610    0.7678277    0.8360721 
H     1.0021242    3.8225590    4.0257404 
C     1.5016025    3.0444558    3.4693955 
N     2.6631733    2.4773539    3.9305048 
C     3.0654296    1.5598963    3.0716361 
H     3.9648358    0.9816254    3.2321378 
