15
Energy = -453.7727089385
N    -2.4215202   -0.2055896   -0.5461327 
O    -0.6439245   -0.1921591   -2.0938379 
H    -1.3231131   -0.5924252   -2.6448407 
C    -1.1991748    0.0350999   -0.9008527 
H     1.4244820    0.4038574   -0.7892304 
H     1.0184931    2.0427232   -0.2490014 
O    -3.8183152    0.4440602    2.7043499 
C    -3.7081910    0.1015308    1.5505699 
H    -4.5601927   -0.3304743    0.9896271 
C    -2.4847557    0.2077707    0.7720277 
N    -0.4421771    0.5750377    0.0916838 
C    -1.2701116    0.6937257    1.1749253 
H     1.4403065    0.7914442    0.9403763 
C     0.9382391    0.9816527   -0.0066122 
H    -0.9412055    1.0959151    2.1175608 
