15
Energy = -395.8353457635
H    -3.2544392    0.5253929    0.6982764 
N    -0.4371273    1.0083297   -0.1705165 
H    -0.8022377    0.1612545   -0.5725568 
H     1.4799305    0.6287816   -0.8619908 
H     1.2915107    0.3176351    0.8802497 
C    -2.5404210    1.1987474    1.1368497 
C    -1.2353809    1.4920613    0.8489789 
H     1.3473603    1.9756937    0.2735854 
C     0.9916922    0.9715229    0.0502744 
N    -2.8637544    2.0404784    2.2041739 
H    -3.7389764    2.0983005    2.6893462 
C    -1.7602387    2.7420033    2.4855414 
O    -1.7547654    3.6292149    3.4861955 
N    -0.7548036    2.4553200    1.7066851 
H    -0.8743814    4.0153038    3.5023639 
