17
Energy = -451.1089150445
H     1.7751871    0.9494372    0.0310412 
H    -1.1430048    0.8367214    0.4233826 
N    -0.1853222    0.7164396    0.7139829 
H     0.5198525    1.4405837   -1.0920860 
C     0.8029504    1.4439778   -0.0412424 
H     0.9184447    2.4871825    0.2825462 
H    -2.4718951   -1.1079284    2.2695254 
C    -2.4064632   -0.1555136    2.8016154 
O    -3.0984170    0.7714601    1.9689874 
H    -2.8993404   -0.2825284    3.7701010 
C    -0.9963274    0.2426011    3.0268371 
C    -0.0743387    0.6303506    2.0721806 
N    -0.3912978    0.2998050    4.2382395 
N     0.8295179    0.6800280    4.1110715 
H    -3.1074975    1.6161109    2.4238935 
N     1.0341245    0.8925046    2.7892708 
H     1.9329252    1.2093179    2.4732923 
