16
Energy = -433.8493986973
H    -1.7878265   -0.8528633    0.8415137 
C    -0.8220528   -0.4820062    1.1814665 
N    -0.9143881    0.2445631    2.4805346 
C    -0.3719967    0.8340678    0.5026073 
H    -0.2080232   -2.5810061    1.2252548 
H     1.1281563   -1.4669880    0.9343028 
H    -0.0349413   -0.1853908    4.4140854 
O     0.8929209    0.7884664   -0.0868433 
C     0.1878139   -1.5968282    1.4750149 
C    -0.1187361   -0.5043611    3.3816026 
N     0.4589764   -1.5235962    2.9142297 
H    -1.1214803    1.2545877   -0.1766041 
C    -0.3974836    1.4367758    1.8980210 
N     0.0024739    2.5462755    2.3183658 
H    -0.0717163    2.6412996    3.3283513 
H     1.3215106    1.6324542    0.0781546 
