17
Energy = -454.9787843133
H     1.7452139    1.3643306   -0.6742744 
H     1.2191293    0.0380066    0.3761510 
H     0.0360285    0.9006459   -0.6311417 
H    -1.6603896    2.9313103    4.1416481 
N     1.0317296    3.7633856    2.2862440 
H    -0.4391094    5.3308289    3.3982773 
O     2.4640327    3.4144509    0.4476949 
H     2.8292654    4.2366452    0.7865772 
C     1.4449032    3.0908323    1.2511073 
C    -0.7640687    3.5302286    3.9723007 
O    -1.1732478    4.8726575    3.8163567 
H    -0.1241105    3.4295783    4.8602922 
C    -0.0340457    3.0342038    2.7766948 
N     0.7351869    1.9684395    1.0216536 
C    -0.2360107    1.9298080    2.0107939 
C     0.9416037    1.0109609   -0.0329600 
H    -0.9617699    1.1361821    2.0604512 
