14
Energy = -469.8043885778
N     1.2312182    0.8810439   -0.0918062 
H     0.7204175    0.3005368    0.5702147 
O     3.4259967    2.5970054    3.5954762 
H     5.2496297    3.8132209    2.8734049 
C     3.3125180    2.4810020    2.4010319 
H     1.7624757    1.1831486    2.4717254 
N     2.3347450    1.7121659    1.8283405 
N     5.2790661    3.7940173    1.8550086 
C     4.2977378    3.1299400    1.4451985 
C     2.0739837    1.6357608    0.4685930 
H     2.2778299    3.5709452   -0.3727494 
O     4.1538460    2.8770709    0.1315768 
C     2.8446659    2.6323461   -0.3459642 
H     2.9396938    2.2574262   -1.3603760 
