14
Energy = -395.5475052348
H    -3.1990775    0.8812042   -1.8610168 
C    -2.2341557    1.3737986   -1.7930959 
N    -2.0504182    2.4554236   -2.5423231 
C    -0.8574099    3.0263820   -2.4295127 
H    -0.6871377    3.9122807   -3.0343992 
N     0.1531139    2.6450231   -1.6665089 
C    -1.4642023   -0.2935357   -0.1502061 
C    -1.5853514   -1.2691546    0.5450566 
H    -1.7174018   -2.1338204    1.1503803 
H     0.8840163    0.3386844    0.4403730 
C    -1.2654587    0.8585541   -0.9459822 
C    -0.0342825    1.5594634   -0.9153126 
H     1.8356529    1.6751017   -0.1483006 
N     0.9777595    1.1566367   -0.1320865 
