16
Energy = -433.9000363812
O    -0.9552087    0.3929409   -2.3752454 
H    -2.6767199    1.2744935   -3.0758269 
N    -3.0063526   -0.1783403   -1.6157436 
H    -2.2850054   -2.0729187   -1.1100714 
C    -2.0811232   -1.0292274   -0.8672947 
C    -2.3020674    0.5358040   -2.3780746 
H     1.2218384    1.2572359   -0.9815678 
H     0.0179220   -1.2680374   -1.6532217 
C    -0.6965526   -0.5258062   -1.2978744 
N    -0.9676540    0.0699037    0.9683655 
H    -2.0299919   -1.7161433    1.2093550 
H    -3.0337044   -0.2936297    0.9513212 
C    -2.1020477   -0.7773045    0.6517593 
N     0.9497270    0.8843728   -0.0882766 
H     1.1082331    1.4997717    0.6923897 
C    -0.2274814    0.1977877   -0.0568424 
