16
Energy = -474.7742394983
H    -0.2871471   -0.8111616   -3.4882734 
C     0.4315054   -0.8485231   -2.6737405 
O     1.6846014   -1.0534898   -3.2161396 
H     4.0241753   -0.2127326   -3.6167110 
C     3.9394018   -0.5009644   -2.5682446 
H     4.8489353   -1.0094698   -2.2347346 
H     0.1693362   -1.6504889   -1.9683747 
O     0.3303695    0.3977636   -2.0063292 
H     2.7008946   -2.2588313   -1.8782083 
C     2.6506214   -1.2157701   -2.2017767 
C     2.5387406   -0.1399335   -1.1137586 
H     2.8109867   -0.4782779   -0.1108166 
N     1.0909756    1.4986130   -0.1380795 
H     0.1983701    1.9765427   -0.2507104 
C     1.2512935    0.6357211   -1.0368575 
O     3.6086385    0.6074035   -1.7161583 
