14
Energy = -477.8103262250
H    -2.4528077    0.3086287   -2.7342390 
O    -3.1114207    0.5274930   -2.0671710 
H     1.3259036    0.4054371   -0.7918202 
C    -2.4319885    0.8000470   -0.9384197 
C    -3.1370218    1.1584391    0.2022855 
H    -4.2148321    1.2214567    0.1890052 
N    -1.1144668    0.7007485   -0.9974741 
N     0.9640444    0.9070828   -0.0004276 
C    -0.3962371    0.9622058    0.0905364 
H    -2.8654535    1.7024500    2.2747549 
C    -2.3920181    1.4218608    1.3423227 
H     1.4811627    0.8280978    0.8563142 
C    -1.0256884    1.3231447    1.2824668 
F    -0.2587540    1.5626510    2.3651409 
