14
Energy = -469.8386943716
N     0.9627172    1.1124303   -0.0639667 
C    -0.4126691    1.1009159   -0.0265463 
N    -1.0462070    1.5359118    1.0423882 
C    -2.3776009    1.5798911    1.0329848 
C    -3.0883114    1.1667147   -0.0775889 
O    -4.4344528    1.2118582   -0.0889972 
N    -2.4675816    0.7088933   -1.1605407 
C    -1.1599554    0.6751659   -1.1422516 
O    -0.4934573    0.2086144   -2.2145524 
H     1.3958678    1.1593847    0.8428658 
H     1.3892650    0.4653291   -0.7043217 
H    -2.8842196    1.9419500    1.9184079 
H    -4.7206589    0.8806843   -0.9452670 
H    -1.1510181   -0.0462884   -2.8699989 
