16
Energy = -437.7379174263
O    -2.2621890   -2.6175477   -1.8393854 
C    -2.7058331   -2.0860350   -0.8150646 
H    -0.7601815   -1.8211201   -2.0249338 
O    -0.1211389   -1.1402489   -1.6721067 
C    -0.7395261   -0.6848727   -0.6043168 
H     0.8945896    1.9934602   -0.1393362 
H    -3.6898502   -2.3963311   -0.4261455 
C    -1.9874413   -1.0831328   -0.1172984 
H    -3.0888773   -0.3394311    1.6997103 
C    -2.2225675   -0.3010810    1.0593342 
H     1.5257630    0.5004428   -0.8580054 
N    -0.2322006    0.2647500    0.1957994 
C    -1.1441842    0.5059725    1.2245431 
H     1.6726699    0.7693922    0.8885052 
C     1.0358493    0.9228264    0.0162161 
H    -0.9196222    1.2417423    1.9782560 
