13
Energy = -493.7881415157
H    -2.2835359   -1.9340985   -1.5818019 
N    -2.9532674   -1.2677377   -1.2090937 
C    -2.3874642   -0.2868131   -0.6523931 
O    -0.9972179   -0.2003477   -0.5886228 
H     1.3788302   -0.1002158   -0.1952530 
N    -2.4822590    1.8019665    0.5382709 
C    -3.0897539    0.8195923   -0.0347426 
H    -4.1715653    0.7959207   -0.0650647 
F    -0.5419413    2.8461951    1.1697274 
C    -1.1507105    1.8125279    0.5642074 
H     1.4528501    1.4389258    0.5335460 
N     0.9609873    0.8066255   -0.0736262 
C    -0.3920950    0.8395755    0.0067326 
