16
Energy = -433.8857361062
H     0.0663136    0.3964158   -3.4792999 
H     2.4088433    1.2687627   -4.9009087 
C     2.7604326    0.3219127   -3.0455389 
O     3.5155260   -0.5328496   -3.4421723 
N     1.2006173    2.2598895   -3.5254742 
H    -0.9062176    1.9266028   -3.7583849 
C     0.0013307    1.4759615   -3.3759388 
H     3.2629790    2.2464547   -3.7204315 
C     2.4220846    1.5574486   -3.8497932 
N     1.0484471    1.2635882    0.0080877 
H     1.5605227    0.5835373    0.5657688 
C     1.3252966    1.1772976   -1.2255420 
N     2.2018915    0.2569761   -1.7915078 
H     2.5345218   -0.5050292   -1.2183332 
C     0.6625277    2.0832698   -2.1877372 
H     0.2341226    2.9614966   -1.7231299 
