12
Energy = -509.8992686277
F     0.9215019    0.9819297    0.0304844 
C     0.0242632    1.7465068    0.6127584 
N     0.3318348    2.3932127    1.6558398 
C    -0.6600712    3.1815944    2.2219494 
O    -0.5071196    3.8459235    3.2093269 
N    -1.9023182    3.1747036    1.5715444 
C    -2.2335972    2.4729439    0.4382772 
N    -3.3254855    2.4233415   -0.1970640 
H    -4.0451534    3.0012739    0.2201475 
N    -1.1567452    1.7243225   -0.0272606 
H    -2.6072096    3.7531679    1.9980370 
H    -1.3018008    1.1737496   -0.8579160 
