13
Energy = -448.7177643554
H    -3.8541205    2.3810968   -1.8086016 
N    -3.5349220    1.7653547   -1.0839513 
O    -0.9933155    1.8024808   -0.9539775 
N    -3.6345863    0.1624404    0.5037132 
C    -2.3392498    0.4710175    0.2169460 
N    -1.0548227    0.2043598    0.6763738 
H     1.4807318    0.6168097    0.6745306 
C    -2.2710569    1.4106338   -0.7500501 
C    -4.3227769    0.9409510   -0.2976720 
H    -5.3970414    0.9562815   -0.3882568 
H     1.3970647    1.9860522   -0.3097689 
N     1.0292238    1.0727893   -0.1004642 
C    -0.3290332    0.9891516   -0.0428504 
