14
Energy = -395.5712630064
H     1.1106550    1.1638645   -2.0637282 
C     1.7087640    1.1254812   -1.1605285 
H     0.0231667    0.9487280   -0.0423405 
N     1.0295228    1.0001519   -0.0126067 
N     3.0101820    1.2017884   -1.2520922 
C     3.7258374    1.1507369   -0.1066613 
H     4.8030957    1.2167443   -0.2226893 
H     0.3677511    0.7343469    2.9486149 
C     1.3451241    0.8214799    2.4993289 
C     1.6903593    0.9425780    1.1822891 
N     2.4851679    0.8221021    3.2685212 
C     3.1378865    1.0241353    1.1223849 
C     3.5370178    0.9393826    2.4820729 
H     4.5435466    0.9622709    2.8744501 
