13
Energy = -493.8478639517
N     1.1006560    0.9305350   -0.0432058 
C     1.5078065    0.7431051    1.2337422 
C     1.8964529    1.7853623    2.0357483 
F     1.8330652    3.0344623    1.5567451 
C     2.3663520    1.5957350    3.3660677 
O     2.7360563    2.4281288    4.1684474 
N     2.3614117    0.2246485    3.7007267 
H     2.6827183    0.0101361    4.6324147 
C     1.9580552   -0.7496482    2.8707489 
N     1.5361869   -0.5528825    1.6691901 
H     0.8790934    1.8585896   -0.3519849 
H     0.6470508    0.1562891   -0.4920454 
H     1.9974038   -1.7620404    3.2595126 
