16
Energy = -470.9657606040
C     0.6117564    1.3637183    0.3126114 
N    -0.3462611    0.7255952   -0.5632505 
C    -0.9392898   -0.4417431   -0.2199947 
C    -0.5882096   -1.4896376    0.5942024 
N     0.5750061   -1.6442529    1.3769487 
C    -1.6735254   -2.3835323    0.4036530 
O    -1.7735076   -3.5731334    1.0064285 
N    -2.5818672   -1.9493403   -0.4196854 
O    -2.1059346   -0.6921125   -0.8200291 
H     0.1402825    1.8332016    1.1834352 
H     1.1512138    2.1248275   -0.2497401 
H     1.3190584    0.6205743    0.6731308 
H    -0.9503993    1.3378092   -1.0865696 
H     0.3516988   -1.8717089    2.3360177 
H     1.1713532   -2.3792274    1.0208758 
H    -2.5943085   -3.9820608    0.7134310 
