14
Energy = -415.7060585426
H    -3.0968519    0.4250715   -2.5868408 
O    -3.4531125    0.5343587   -1.7002697 
C    -2.4000926    0.7066300   -0.8909593 
N    -1.1520170    0.7247051   -1.2211490 
H     1.4859305    0.0971513   -0.3676775 
C    -0.4525428    0.9334194   -0.0317693 
H     1.3968188    1.1809648    1.0192934 
N    -2.6013811    0.8877509    0.4367704 
C    -1.3458655    1.0333847    0.9861851 
H    -3.4774619    0.9122319    0.9254038 
O    -1.2621937    1.2306916    2.3204951 
H    -0.3369542    1.3122435    2.5571983 
H     1.3939840    1.8390444   -0.6156981 
C     1.0273571    1.0168384    0.0037175 
