14
Energy = -473.5129857442
H    -1.7350647    1.5786006   -1.3006279 
C    -1.2934912    2.1470103   -0.4868867 
O     0.9871283    1.2968866    0.0443468 
N    -0.4530836    3.3940882   -0.7039596 
H     0.4500761    3.0856929   -1.0638308 
H    -1.6312467    0.9137118    2.1381951 
H     1.2439532    0.4946398    0.5217254 
O     0.0206102   -0.2279471    1.9452565 
C    -0.6646763    0.7141256    1.6425945 
O    -2.9597359    3.2638432    1.1059394 
C    -1.9137262    2.9627255    0.6430189 
H     0.1460970    3.8571505    1.4691180 
C    -0.2326104    1.6664623    0.5681644 
C    -0.4167538    3.2084968    0.8037892 
