15
Energy = -461.7516088894
H     1.4144444    0.2416056   -0.6368352 
H     4.7463405    3.8461470   -0.2801241 
C     3.0036468    2.5307924   -0.2980750 
H     0.3691301    1.6397977   -0.6137590 
O     2.8739658    2.4652490   -1.5140384 
H     0.3817281    0.5357254    0.7802950 
F     1.5449939    1.3442591    2.8497374 
H     4.9325083    3.9187440    2.2038794 
C     4.1673992    3.3552586    1.6883073 
N     3.2964238    2.6758905    2.4877075 
H     3.3702254    2.7040766    3.4890226 
C     2.0954833    1.8214248    0.6075672 
C     2.3017946    1.9406960    1.9316258 
C     4.0531022    3.3055958    0.3485875 
C     0.9975154    1.0092126    0.0181572 
