13
Energy = -444.7969926535
N     1.0850290   -0.5732023    1.8121923 
H     1.1163617   -1.9926379    3.2509592 
N     1.3616475    1.4504054    0.6488997 
H     0.4536522    1.6225936    1.0702406 
N     2.9178365   -0.1703511    0.3025007 
N     3.8550830   -1.0757008    0.5846579 
N     4.0016398   -1.5980392    1.7029280 
C     3.1744685   -1.3299887    2.8136235 
N     3.7230380   -1.1877994    3.9439019 
H     3.0244044   -1.0780146    4.6774197 
C     1.7047719   -1.3298539    2.6153169 
C     1.7762142    0.3027409    0.9746692 
H     3.1031209    0.3027890   -0.5681145 
