14
Energy = -469.8421090949
N     1.2027205    0.7567160   -0.1967238 
C     0.0541383    0.3252243   -0.7610427 
N    -0.0370534   -0.9360010   -1.1585679 
C    -1.1760978   -1.3068426   -1.7385604 
O    -1.2476166   -2.5840537   -2.1374449 
N    -2.2395809   -0.5684501   -1.9637694 
C    -2.1407012    0.7005940   -1.5531238 
C    -1.0240603    1.2111124   -0.9465443 
O    -0.8635512    2.4920399   -0.5027993 
H     1.8852167    0.0694348    0.0635470 
H     1.2139224    1.6523789    0.2536114 
H    -0.4043550   -2.9864613   -1.9094452 
H    -3.0091083    1.3349465   -1.7231211 
H    -1.6651369    2.9916630   -0.6678335 
