13
Energy = -394.6486067492
H    -4.1428173    1.3672024   -0.4089066 
C    -3.0745987    1.2381105   -0.3177366 
C    -2.3028982    1.0409165   -1.3915970 
H    -2.6737284    0.9912515   -2.4066266 
H    -0.3796263    0.6185293   -2.0243418 
N    -0.9466353    0.8903324   -1.2417728 
H     1.5146282    1.0742152   -0.6653052 
C    -2.4754659    1.2714165    1.0210093 
O    -3.1428318    1.4228565    2.0224693 
C    -0.4071517    0.9400569    0.0130017 
N    -1.0900445    1.1312829    1.0863785 
H     1.3096220    0.9088611    1.0056422 
N     0.9435160    0.7256503    0.0858649 
