15
Energy = -595.3332899453
N     1.1065836    1.2369728   -0.8244650 
C     0.2529769    1.6940461    0.1143294 
O    -0.9028864    1.3867611    0.2308426 
N     0.8731795    2.6180179    0.9923709 
N     2.2035995    2.9271717    0.8495801 
C     2.4570594    3.7549502    1.7992058 
N     1.3630589    4.0086555    2.5616873 
H     1.2916881    4.6108110    3.3608978 
C     0.2802292    3.2774197    2.0728627 
O    -0.8379883    3.2566074    2.5013468 
H     0.7573393    0.5571363   -1.4716542 
H     2.0679463    1.5243469   -0.8301966 
H     3.4268414    4.1950427    1.9674297 
N     0.0028988    0.1678484    3.1807790 
N    -0.9509392   -0.2926299    3.4337418 
