16
Energy = -579.2858276243
N     1.1451564    0.4159685    0.4124573 
C    -0.1151930    0.6043387   -0.0659536 
C    -0.5239221    1.0128421   -1.3335519 
N    -1.9168194    1.0916943   -1.2294845 
C    -2.2321211    0.7460534    0.0146349 
O    -3.4903576    0.7216217    0.4207221 
N    -1.1850913    0.4412358    0.7572025 
C     0.1573577    1.3202323   -2.5367130 
O    -0.3935261    1.6683629   -3.5690729 
H     1.1985924   -0.1288051    1.2555355 
H     1.8733817    0.2364419   -0.2545589 
H    -2.5297109    1.3645705   -1.9775523 
H    -3.4921155    0.4595659    1.3499664 
H     1.2615982    1.2253597   -2.4882933 
N    -3.2617915   -0.0783599    3.3928571 
N    -2.9013053   -0.3481646    4.3837670 
