16
Energy = -582.9558186988
O     0.8922520    0.7293302    0.5969461 
C     0.6279617    2.0648866    0.4047259 
H    -0.4107191    2.1967920    0.1158108 
C     1.2304931    3.0736698    1.4141326 
H     1.1343617    3.1539833    2.4947764 
O     2.5582476    2.7678821    0.8573473 
C     1.6958746    2.9153300   -0.3234656 
H     2.1542972    2.8082999   -1.3047582 
C     1.1001830    4.1809509    0.3541317 
O    -0.1808802    4.6113117    0.0571325 
C     2.0474554    5.2843352    0.4906805 
N     2.7195722    6.2155711    0.5393792 
H     1.8194613    0.6611110    0.8515754 
H    -0.1397049    5.3134019   -0.5994355 
N     0.3092094    7.0499811   -1.8573970 
N     0.6243119    7.9678194   -2.3504375 
