16
Energy = -579.2784854413
N     1.2624300    0.7809394   -0.0009961 
C     0.5067861    1.2464476   -1.0101761 
N    -0.7887770    1.3828414   -1.0178113 
C    -1.1016865    1.8460367   -2.2775541 
O    -2.3723433    2.0877644   -2.6043631 
C    -0.0086986    2.0021125   -3.0577994 
N     1.0669034    1.6113910   -2.2278001 
C     2.3957677    1.6426014   -2.5400938 
O     3.2870929    1.3336636   -1.7834977 
H     0.8269433    0.7047793    0.8986979 
H     2.2618070    0.8742926   -0.0841469 
H    -2.9142410    1.8589141   -1.8419139 
H     0.1355104    2.3342952   -4.0685652 
H     2.5758888    1.9865420   -3.5699457 
N    -4.2663145    0.6489903    0.8766955 
N    -4.0147957    1.1115835   -0.0761233 
