19
Energy = -560.6057810365
C     0.8024068    0.4009382    0.0836724 
N     0.2523205    1.5892810   -0.5534019 
C    -1.0627890    1.9050070   -0.2187327 
C    -2.2801960    1.3155220   -0.4023753 
O    -2.5263301    0.1619115   -1.0540949 
N    -3.2873349    2.0333180    0.1701629 
C    -2.7017238    3.0823361    0.7059676 
N    -3.3547475    4.1266692    1.3351935 
N    -1.3717780    3.0608319    0.5111635 
H     0.2296366   -0.5105278   -0.1226478 
H     0.8257404    0.5490064    1.1640446 
H     1.8292249    0.2551297   -0.2567419 
H     0.3862186    1.5580323   -1.5535143 
H    -3.4734181    0.0120225   -0.9949896 
H    -4.3401685    3.9247575    1.4084948 
H    -2.9755465    4.3552690    2.2423376 
H    -0.7111812    3.7830641    0.7330560 
N    -1.6820813    0.4850353    2.9170133 
N    -1.9452889    1.4768055    3.2838789 
