13
Energy = -597.8040359656
O     1.3998370    1.0687635   -0.0888587 
C     1.4419423    1.1578643    1.1045338 
C     0.7213033    2.2283758    1.8565001 
N     0.1171035    2.2342922    2.9753882 
O    -0.1055508    1.0673193    3.6788663 
C     0.5223787   -0.1130054    3.5175820 
N     1.5643175   -0.4566784    2.8995585 
C     2.3062693    0.3021845    2.0213709 
O     3.5008563    0.3033463    1.9521210 
H     0.7446733    3.2105047    1.3903094 
H    -0.0146922   -0.8376831    4.1241354 
N    -2.3895825   -0.3540148    0.2378394 
N    -1.6099174   -0.1737444    0.9765018 
