18
Energy = -547.1897291131
O     1.0884972    1.0905617    0.2447894 
C     0.3966092   -0.1541548    0.3250977 
C    -0.1803798   -0.3996255    1.6841682 
C    -0.0812367   -1.6308168    2.3144701 
N    -0.6002193   -1.9214593    3.5007837 
C    -1.2594395   -0.9420423    4.1147173 
C    -1.4146075    0.3334106    3.6019848 
C    -0.8569915    0.6205135    2.3634678 
O    -0.9745749    1.8560053    1.8560963 
H     1.8099597    1.0708047    0.8797440 
H     1.0474160   -0.9843660    0.0340283 
H    -0.3955316   -0.0825436   -0.4248110 
H     0.4574909   -2.4341204    1.8157921 
H    -1.6832914   -1.1854861    5.0842152 
H    -1.9456099    1.1022210    4.1476000 
H    -0.3380967    1.9386131    1.1255879 
N     2.5152325    0.6223384    4.2488648 
N     2.5407632    0.7840634    3.1722586 
