13
Energy = -485.8777065208
O     0.1037432    1.6694851    0.5209294 
C     0.1079142    1.5830795   -0.8094686 
N     0.3580504    0.5153969   -1.5228733 
C     0.2399425    0.9351184   -2.8201896 
O     0.4344289    0.0808439   -3.8397762 
C    -0.0811764    2.2543762   -2.8964120 
N    -0.1622747    2.6574371   -1.5611937 
H    -0.3797212    3.5736575   -1.2168513 
H     0.3239546    0.7967383    0.8653816 
H     0.6449063   -0.7710770   -3.4496409 
H    -0.2532476    2.9195615   -3.7215595 
N     0.8757809   -1.2549066    1.2836006 
N     1.1619984   -2.3004382    1.1848644 
