17
Energy = -563.2483451740
N     1.0826025    0.8318236   -0.0437710 
C     0.1746666    1.4290668    0.8803201 
C    -0.8550554    2.2904917    0.5728243 
N    -1.6876923    2.8041133    1.4763459 
C    -1.5008916    2.4555556    2.7393483 
O    -2.3470507    2.9742146    3.6437230 
C    -0.4997174    1.6006097    3.1866912 
C     0.3526562    1.0826476    2.2313999 
O     1.3416268    0.2501645    2.5589876 
H     0.6203529    0.1899960   -0.6737629 
H     1.5833835    1.5144702   -0.5946701 
H    -1.0247965    2.5808350   -0.4609772 
H    -2.9580688    3.5293763    3.1469001 
H    -0.3965376    1.3543936    4.2335440 
H     1.7816154    0.0509516    1.7124842 
N    -2.1550662   -0.8639419    0.6369419 
N    -2.8504505   -0.7089101    1.4611640 
