16
Energy = -579.2475500429
C     1.1642346    0.9147794   -0.0326806 
N     2.2269157    1.8887153   -0.0747179 
N     2.9231540    2.0770236   -1.2001929 
C     3.8015390    3.0081158   -0.8474563 
O     4.7068949    3.4988576   -1.6874966 
N     3.7148956    3.4223499    0.4180295 
C     2.7065603    2.6944906    0.8882382 
C     2.2367295    2.8045026    2.2718652 
O     1.3245227    2.1799977    2.7524792 
H     0.7077000    0.9483068    0.9514154 
H     1.5749012   -0.0766460   -0.2229994 
H     0.4308067    1.1517986   -0.8022880 
H     4.5993504    3.0556950   -2.5338111 
H     2.8194140    3.5417043    2.8515177 
N     5.3343513    0.0937582    0.2637006 
N     4.6281199   -0.0196554    1.0855529 
