18
Energy = -580.4786910105
N     1.2233256    0.9975821    0.3089433 
C     0.1789553    0.2298809    0.8012318 
C    -1.0973585    0.0885197    0.3249159 
C    -1.8138806    0.6598212   -0.8300990 
O    -2.1534474   -0.3003970   -1.8215687 
N    -1.6700252   -0.8741332    1.1687536 
C    -0.7261290   -1.2321726    2.0451871 
O    -0.9763054   -2.1527354    2.9787207 
N     0.4006126   -0.5938158    1.8786143 
H     1.9364282    1.1405911    1.0066031 
H     0.9389422    1.8706727   -0.1036066 
H    -1.2015825    1.4656951   -1.2544873 
H    -2.7673326    1.1088933   -0.5362922 
H    -1.3602386   -0.8083091   -2.0092482 
H    -2.5807130   -1.2844232    1.0723376 
H    -0.1664187   -2.2558089    3.4870204 
N     1.6448215   -2.3257831   -1.1877970 
N     0.7357654   -1.9481217   -1.6536932 
