19
Energy = -564.4048691774
C     1.3238041    0.8990246    0.0945150 
N     0.6678467   -0.3848353   -0.1184438 
C    -0.6536794   -0.3012530   -0.6045408 
C    -1.7369417   -0.7115061    0.1337266 
O    -1.7606000   -1.2576724    1.3581190 
N    -2.8695194   -0.4865868   -0.5577427 
C    -2.5508331    0.0804015   -1.7888844 
C    -1.1877440    0.2008565   -1.8283809 
O    -0.3938738    0.6880394   -2.8171530 
H     2.3333285    0.7307394    0.4743370 
H     0.7695616    1.4621702    0.8468531 
H     1.3866115    1.5122839   -0.8119340 
H     1.2386125   -0.9709174   -0.7121952 
H    -0.8322841   -1.3309632    1.6152925 
H    -3.7905418   -0.7125076   -0.2357116 
H    -3.3113347    0.3297092   -2.5078849 
H    -0.9435970    1.0857843   -3.4938484 
N    -1.9164482    4.0583594   -1.7061683 
N    -1.9176266    3.4133111   -2.5837997 
