18
Energy = -580.4604537059
C     1.2843209    0.7272157   -0.4137244 
N     1.4481433    2.1452952   -0.1792962 
C     0.5313810    2.7808776    0.6234649 
C     0.0731887    4.0524618    0.5357754 
N     0.3145787    5.0747800   -0.3507033 
O    -0.7659427    4.2432990    1.6631443 
C    -0.7408608    3.0744844    2.2706583 
O    -1.4814254    2.9750216    3.3618190 
N    -0.0070859    2.1550806    1.7367963 
H     2.1501511    0.3558851   -0.9615263 
H     0.3761878    0.4778838   -0.9786523 
H     1.2374157    0.2102604    0.5431336 
H     1.6425505    2.6841955   -1.0086134 
H    -0.5006728    5.4146730   -0.8407306 
H     0.8433474    5.8508007    0.0232632 
H    -1.3636139    2.0802808    3.7029119 
N    -0.3589347   -0.9591853    4.0636433 
N    -0.8087579    0.0302070    4.1230368 
