17
Energy = -563.2440462480
C     0.8586576    0.9790885    0.0751468 
C     2.1115393    0.6355307    0.7872227 
C     2.2926939   -0.2181981    1.8585645 
N     3.6530238   -0.1744320    2.1302315 
C     4.1913006    0.6677095    1.2445524 
O     5.4900988    0.9214067    1.2487663 
N     3.3060856    1.1802747    0.4161765 
C     1.4052504   -1.0342255    2.6290353 
O     1.7683189   -1.7329070    3.5561331 
H     0.9414753    0.7195272   -0.9821622 
H     0.6745929    2.0538774    0.1311340 
H    -0.0002420    0.4576456    0.4943472 
H     4.1117085   -0.6908705    2.8609307 
H     5.6656347    1.5448059    0.5324297 
H     0.3427460   -0.9923883    2.3253799 
N     5.4828791    3.4329093   -2.0362961 
N     5.7366187    2.8446538   -1.1564010 
