16
Energy = -505.0331698977
N     0.9090771    1.0223491   -0.5149714 
H     0.3059791    1.6920933   -0.0690369 
C     1.8448095    1.4824986   -1.3941510 
N     2.6715065    0.7265538   -2.0371207 
C     2.5714211   -0.6042779   -1.8003029 
C     3.2478702   -1.6949663   -2.3025938 
C     2.6463005   -2.8096650   -1.6662300 
N     1.6635143   -2.5134394   -0.8162269 
C     1.5884049   -1.1617423   -0.8726749 
C     0.7566482   -0.2982712   -0.2352452 
H     1.8626067    2.5570840   -1.5333423 
H     4.0505483   -1.7042813   -3.0221587 
H     2.9240566   -3.8452481   -1.8235509 
H    -0.0155687   -0.5812774    0.4666631 
N    -0.3366055   -0.8215556   -3.5473889 
N     0.0349461   -1.6881953   -4.0930227 
