14
Energy = -574.1834508229
O     1.2986182    1.0392726   -0.1260778 
C     0.7202046    2.2162639    0.0800480 
N     0.6853277    2.8921634    1.1860688 
C    -0.0325094    4.0182832    0.8342095 
C    -0.4061793    3.9764495   -0.4846462 
N    -1.0862147    5.1070294   -0.6961741 
H    -1.5349239    5.4840003   -1.5101632 
N    -1.1229530    5.8199478    0.4712401 
N    -0.4897551    5.1619393    1.3854518 
N     0.0768671    2.8037606   -0.9958427 
H     0.0121281    2.4171926   -1.9188559 
H     1.7005598    0.7669901    0.7091714 
N     2.7570274    0.6161547    3.7111336 
N     2.4704566    0.5051255    2.6670621 
