16
Energy = -504.9832951469
N     0.7329910    1.1042476    0.1913609 
C     1.5518224    0.2444125    0.8366886 
N     2.3043258    0.7193819    1.8242771 
C     3.0747668   -0.1477441    2.4642556 
C     3.1145541   -1.4937172    2.1347028 
N     2.3758941   -1.9808569    1.1461222 
C     1.5963390   -1.1339201    0.4904397 
C     0.7969776   -1.6033666   -0.5882618 
C     0.0963799   -1.9180899   -1.5144237 
H     0.8717538    2.0839314    0.3593996 
H     0.3073165    0.8152699   -0.6705760 
H     3.6887543    0.2459373    3.2679864 
H     3.7527742   -2.1872024    2.6691430 
H    -0.5139222   -2.2326503   -2.3270695 
N     5.0727784   -0.2097640   -0.4827786 
N     4.2483103    0.1442881   -1.1009275 
