16
Energy = -542.1262689449
N     0.6551788    0.7389802    0.3584313 
C    -0.0273491    1.8891770    0.1582700 
N    -0.8513889    2.4064564    1.0123258 
C    -1.4505394    3.6125243    0.4443859 
C    -0.8108590    3.7015902   -0.8901146 
C     0.0384232    2.6781579   -1.0701895 
N     0.6313941    2.7667005   -2.3127950 
C     0.1017517    3.8356867   -2.8032022 
O    -0.7976825    4.4732640   -1.9939608 
H     0.6610886    0.3695777    1.2923255 
H     1.4483495    0.5445567   -0.2246923 
H    -1.2394404    4.4765298    1.0819900 
H    -2.5389247    3.5084388    0.3924730 
H     0.2779033    4.2877474   -3.7658773 
N     2.9755140    0.3866626   -2.0602653 
N     3.5152887    0.4459080   -3.0038832 
