14
Energy = -619.3026518616
F     1.5120662    0.9323816   -0.1291021 
C     0.9030973    1.3649651   -1.2129973 
N     0.5172227    2.5670157   -1.2648517 
N    -0.1036264    2.9143472   -2.4332303 
C    -0.3404989    2.1272762   -3.5109986 
O    -0.8991260    2.5102658   -4.5148632 
C     0.1474885    0.7077479   -3.3785854 
N     0.0192373   -0.1699459   -4.2737881 
H    -0.4584541    0.2531968   -5.0677825 
N     0.7644854    0.4222909   -2.1726578 
H    -0.4112586    3.8721965   -2.4741965 
H     1.1121819   -0.5150388   -2.0229859 
N     1.5224773   -2.7092130   -2.4658313 
N     1.5784748   -3.6761820   -2.9626941 
