16
Energy = -583.4332063497
N     0.9890145    1.0172336   -0.0086252 
C    -0.1590610    0.5350868    0.5668275 
C    -0.2102014    0.1482906    1.9068931 
N    -1.3532647   -0.2788143    2.4382281 
C    -2.3954341   -0.3133904    1.6809044 
F    -3.5554648   -0.7493312    2.1987167 
C    -2.3785330    0.0725399    0.3306528 
N    -3.5079923    0.0570376   -0.4257553 
N    -1.2433458    0.4851000   -0.2083208 
H     1.8587325    0.7415704    0.4108815 
H     0.9860333    1.0178524   -1.0140370 
H     0.6633674    0.1820680    2.5468417 
H    -4.2809163   -0.4949105   -0.1020635 
H    -3.3777963    0.1289491   -1.4190718 
N    -1.0965484   -2.9804865    0.1780288 
N    -0.0247205   -2.8390403    0.3149578 
