16
Energy = -583.0556976702
O     0.8037469    1.4032686   -0.0601683 
C    -0.2654952    0.8612118   -0.1408472 
C    -0.8203870    0.1131409   -1.3314954 
O    -2.1551759   -0.2481837   -0.9948323 
C    -2.5186808    0.1887321    0.2400363 
O    -3.6090249    0.0221011    0.6831959 
C    -1.3321242    0.8252551    0.8776897 
C    -0.9959946    0.6194442    2.3198235 
N    -1.4719748    1.8910714    1.8593210 
H    -0.2356518   -0.7864181   -1.5361779 
H    -0.8217224    0.7477897   -2.2196224 
H     0.0567381    0.4961110    2.5501682 
H    -1.7065683    0.0435922    2.9005559 
H    -0.6866635    2.5247852    1.7229617 
N    -2.6317978    3.0983638   -1.0928688 
N    -3.4191263    3.8456357   -1.0062072 
