16
Energy = -579.3039386282
N     0.4407923    0.3231800    0.1788208 
C     0.2364945    0.5996900    1.4867668 
O    -0.0603596   -0.2366867    2.3198444 
C     0.4077274    2.0243688    1.8238325 
C     0.2623029    2.5848848    3.0548986 
N     0.5194926    3.9235698    2.8732817 
C     0.8023026    4.0963626    1.5608909 
O     1.0931400    5.3129963    1.1048263 
N     0.7482833    2.9867836    0.8879649 
H     0.3399115   -0.6216790   -0.1408922 
H     0.6774348    1.0639426   -0.4560343 
H     0.0063818    2.1536440    4.0059737 
H     0.5054490    4.6471127    3.5689770 
H     1.2715006    5.2336161    0.1606127 
N     1.8098406    4.1173266   -2.8090670 
N     1.6665035    4.6781788   -1.8872535 
