16
Energy = -579.0891152193
C     1.3219226    0.9587047    0.1669854 
C     0.7058983    1.5053060    1.4105907 
N    -0.0697199    2.5135466    1.2342351 
O    -0.6999463    3.1110382    2.2870960 
N    -0.5500638    2.6752526    3.5789247 
C     0.2135349    1.6772250    3.7801386 
C     0.9359116    0.9682447    2.7498311 
N     1.6587111   -0.0102299    3.1597352 
O     2.3389725   -0.6740179    2.1760989 
H     0.9755989    1.5469924   -0.6804604 
H     1.0484084   -0.0871482    0.0288589 
H     2.4094032    0.9977726    0.2259523 
H     0.3106347    1.3574712    4.8115517 
H     2.8098133   -1.3521922    2.6691927 
N     3.4023685   -2.4080787    4.4990763 
N     3.5132061   -2.7245580    5.5347300 
