15
Energy = -595.3125752344
N     0.9835667    0.9299354   -0.1876783 
C     0.8861003    1.4260450   -1.4287936 
N     0.3854699    2.6036973   -1.6392760 
C     0.3014050    3.0789972   -2.9271440 
O    -0.1460515    4.1597066   -3.2370678 
N     0.7768156    2.2229463   -3.9168617 
H     0.7291918    2.5417176   -4.8694805 
N     1.2969157    1.0081109   -3.7314776 
C     1.3595458    0.5999406   -2.5236182 
O     1.8647085   -0.6076368   -2.2143284 
H     0.6617404    1.4882059    0.5818861 
H     1.3731009    0.0194860   -0.0336502 
H     2.1412749   -1.0430342   -3.0305604 
N     2.8044926   -1.9792477   -4.8609305 
N     3.0813365   -2.2769693   -5.8707020 
