18
Energy = -547.2017998579
C     0.8296636    1.2361252    0.2774742 
N    -0.4367377    0.5379300    0.2091157 
C    -1.0786200    0.3604296   -0.9649089 
C    -2.2738229   -0.2707840   -1.0557275 
C    -2.8550424   -0.7557161    0.1402521 
O    -4.0431845   -1.3750717    0.0110539 
C    -2.2222768   -0.5846924    1.3365819 
C    -0.9614061    0.0860379    1.4358964 
O    -0.3348353    0.2936553    2.4636915 
H     1.5822807    0.5979092    0.7387631 
H     0.7312961    2.1299450    0.8932558 
H     1.1377811    1.5111634   -0.7288691 
H    -0.5796174    0.7588602   -1.8382889 
H    -2.7691981   -0.4023487   -2.0051327 
H    -4.3499615   -1.6586215    0.8756173 
H    -2.6486857   -0.9420059    2.2655705 
N    -2.3607039    3.1903130    0.5105203 
N    -3.2086704    2.8557484    1.1069769 
