17
Energy = -522.2283813142
N     1.0004813    0.7091020   -0.3267032 
C    -0.3527589    0.4773744   -0.5127232 
C    -0.9775669    0.7664224   -1.6900960 
N    -2.3209992    0.8743333   -1.9115499 
C    -3.2062312    0.1885694   -1.3015153 
C    -2.8636038   -0.9243694   -0.3804361 
N    -3.1462137   -2.1469802   -0.5518797 
H    -3.6695791   -2.2644245   -1.4174173 
N    -2.2091780   -0.4868176    0.7557610 
C    -1.0943386    0.1299348    0.6839472 
H     1.4663597    0.0353626    0.2600993 
H     1.5200426    0.8961722   -1.1687714 
H    -0.3651632    1.1102345   -2.5199076 
H    -4.2560849    0.4075238   -1.4901863 
H    -0.6396657    0.4358754    1.6267313 
N     0.5849542   -2.7141335    0.1763924 
N     0.1072185   -3.6084006   -0.2214521 
