16
Energy = -505.0532651829
N     1.5106086    1.0304914   -0.2828516 
H     1.7939563    1.6697876    0.4466541 
C     1.6798933   -0.3010702   -0.1411397 
C     1.2930964   -1.1665988   -1.1341596 
C     0.7122576   -0.6934106   -2.3216208 
C     0.5417487    0.6635949   -2.4615314 
N     0.0291901    1.4487393   -3.4463018 
C     0.1638910    2.6685263   -2.9430026 
N     0.7207049    2.8020132   -1.7040878 
C     0.9588546    1.5388065   -1.4006507 
H     2.1292940   -0.6299762    0.7840725 
H     1.4463187   -2.2253834   -0.9809369 
H     0.4087000   -1.3802748   -3.1022242 
H    -0.1561048    3.5449546   -3.4916041 
N     1.9576144    3.8360670    1.2594425 
N     1.8739259    4.9191664    1.3290370 
