18
Energy = -547.1846849489
O     0.9360857    0.4943337   -0.0332855 
C    -0.0162944    1.3212123   -0.6928837 
C    -0.7438598    0.6022005   -1.7895328 
C    -1.0096527    1.1975272   -3.0138981 
C    -1.7126301    0.4971477   -3.9797665 
N    -2.1506025   -0.7438690   -3.7924429 
C    -1.8938722   -1.3260509   -2.6319826 
C    -1.1954597   -0.7049874   -1.5983743 
O    -0.9879476   -1.3873658   -0.4553829 
H     1.5903243    0.2175781   -0.6808925 
H     0.4559053    2.2278161   -1.0833823 
H    -0.7171022    1.6281564    0.0879331 
H    -0.6680233    2.2077449   -3.2115633 
H    -1.9280367    0.9481497   -4.9425435 
H    -2.2503541   -2.3411749   -2.4859789 
H    -0.2938757   -0.9264744    0.0428590 
N     2.1310040   -0.7607102   -2.7852113 
N     2.0721307   -1.2052199   -3.7775005 
