13
Energy = -556.8936120493
O     0.7454328    0.9497932   -0.4342936 
C    -0.0450734    1.0816097    0.6263013 
N    -0.8253563    0.2041337    1.1551331 
C    -0.7812796   -0.9757212    0.5096118 
N    -1.4082295   -2.0909477    0.7456413 
C    -0.9269791   -2.9084326   -0.2672782 
N    -0.0572255   -2.4240931   -1.1242514 
C     0.0836996   -1.1482067   -0.6663441 
N     0.8376352   -0.2217837   -1.1481703 
H     0.0411255    2.0838306    1.0298145 
H    -1.2747216   -3.9314751   -0.3353845 
N     2.4033596   -1.0033373    1.7607072 
N     3.1252202   -1.7102599    2.1673212 
