15
Energy = -521.0867752311
N     1.3874965    1.3385166    0.3832516 
C     2.4082610    0.5796041   -0.0290724 
N     3.2735327    1.1166983   -0.8935185 
C     4.2763896    0.3570461   -1.2926866 
N     4.5423952   -0.8979401   -0.9393458 
C     3.6874784   -1.4356211   -0.0819882 
C     2.5901227   -0.7515244    0.4191986 
C     1.6819980   -1.3338981    1.3359422 
N     0.9137837   -1.7602469    2.0831810 
H     1.3206090    2.2733757    0.0248523 
H     0.6984376    1.0025453    1.0327183 
H     4.9671590    0.8142075   -1.9949827 
H     3.8705639   -2.4587332    0.2309192 
N    -1.1156348    0.7660350    2.5055686 
N    -1.8643285    0.4532443    3.2314044 
