14
Energy = -466.0162754169
N     1.1009899    0.7659034    0.1999773 
C     0.9991326    0.9361659   -1.1730259 
C     1.9803623    1.0456700   -2.1156649 
N     1.2935719    1.1164263   -3.3308392 
C    -0.0113644    1.0500760   -3.0401652 
O    -0.9248133    1.1009683   -4.0117460 
N    -0.2446182    0.9427105   -1.7598863 
H     0.2599051    1.0595868    0.6711967 
H     1.9138099    1.1987485    0.6066269 
H     3.0535841    1.0606907   -2.0591544 
H     1.6876733    1.2051898   -4.2481454 
H    -1.7883101    1.0284319   -3.5900185 
N    -4.1666959    0.7612621   -1.4165261 
N    -3.5270589    0.8490648   -2.2928719 
