14
Energy = -619.2418528103
F     0.9732274    1.3874366    0.1566807 
C    -0.1551652    1.8399384   -0.3527198 
N    -0.1526090    3.0230733   -0.7874720 
O    -1.3255579    3.5024167   -1.3202212 
C    -2.4727075    2.7452531   -1.3921515 
N    -3.5320537    3.2052337   -1.8848570 
N    -2.3963942    1.4703368   -0.8997343 
C    -1.2822447    0.8992395   -0.3492578 
N    -1.2807662   -0.2880380    0.0890861 
H    -3.4112941    4.1607483   -2.1999229 
H    -3.2413173    0.9186831   -0.9554939 
H    -0.3685359   -0.5345872    0.4579416 
N    -6.0729183   -0.8329836   -1.0725414 
N    -5.1400276   -0.2725333   -1.0452255 
