15
Energy = -603.2981448197
N     0.9072336    0.7130135   -0.1024835 
C    -0.3125838    1.2878076   -0.2212445 
C    -1.2018008    1.3335953    0.8218459 
F    -0.8392511    0.8315169    2.0096721 
C    -2.5020886    1.8981762    0.6955654 
O    -3.3716050    1.9973750    1.5385989 
N    -2.7095000    2.3785320   -0.6137967 
H    -3.6130958    2.7977334   -0.7795212 
C    -1.7915969    2.3122246   -1.5893494 
N    -0.6182008    1.7958923   -1.4529927 
H     1.2577154    0.5026603    0.8133338 
H     1.5674343    0.8995014   -0.8347203 
H    -2.0781395    2.7288852   -2.5495490 
N    -6.4530399    3.9274353    0.6608135 
N    -5.6766082    3.6861449   -0.0631865 
