16
Energy = -583.0799939801
O     1.8301100    1.5624326    0.3289753 
C     2.2718551    0.3983065   -0.1803375 
C     2.6212264   -0.8015923    0.3689760 
O     2.6032384   -1.1327746    1.6772284 
C     3.0140628   -1.6532390   -0.7091359 
C     3.4481008   -3.0018749   -0.5151553 
O     3.5125598   -3.5193290    0.5910765 
C     2.8864395   -0.9283540   -1.8833229 
N     2.4391840    0.3006842   -1.5410831 
H     1.7577443    1.4748497    1.2848800 
H     2.9104201   -2.0561230    1.7108225 
H     3.7309292   -3.5786541   -1.4152790 
H     3.0801002   -1.2031632   -2.9058621 
H     2.2472086    1.0569296   -2.1727969 
N     1.5796829    1.2840707    3.4035360 
N     1.5512760    0.9992098    4.4535752 
