17
Energy = -505.2888111835
C     0.8286733    1.1325281    0.3048329 
N     2.0442467    1.2872983    1.0569057 
C     2.8887905    2.3980388    1.0690946 
N     2.5982098    3.5010702    0.2597732 
C     3.8938837    2.0732350    1.9299264 
N     3.7024419    0.8126644    2.4515561 
C     2.5936444    0.4011477    1.9101426 
O     1.9906815   -0.7759561    2.1223951 
H     0.8032815    0.1509265   -0.1667011 
H     0.8104654    1.9085916   -0.4577988 
H    -0.0502055    1.2366889    0.9446681 
H     3.4138525    3.8487690   -0.2197723 
H     2.1635941    4.2602522    0.7664622 
H     4.7458347    2.6747623    2.2045920 
H     2.5385231   -1.2478698    2.7566054 
N     1.1112198    3.2378708    3.5497282 
N     0.9598637    2.3092642    4.0996822 
