15
Energy = -558.1466293404
O     1.1242175    0.8757940   -0.0216938 
C     2.3963307    0.5435406    0.2422950 
C     3.1442812    0.7504116    1.3515015 
N     4.4355305    0.3000881    1.1104231 
H     5.2141503    0.3569167    1.7368003 
C     4.4810395   -0.1912770   -0.1560577 
N     5.3255917   -0.7517700   -0.9825843 
N     4.6037655   -0.9752941   -2.1229309 
C     3.3752128   -0.5585648   -1.9628369 
N     3.2397170   -0.0395201   -0.7007300 
H     0.6002871    0.0742311   -0.1255427 
H     2.8516517    1.1929438    2.2868919 
H     2.5886961   -0.5959336   -2.6960062 
N     0.8022785   -2.2361232   -0.0026140 
N     1.0282358   -3.2954733    0.1074112 
