19
Energy = -564.4094251515
C     0.8054669    1.1429899    0.0265579 
N     0.7100206   -0.2219042    0.4676136 
C     1.5703497   -0.8634135    1.3400889 
N     2.6333642   -0.1437040    1.9046627 
C     1.1280360   -2.1542560    1.5016806 
C    -0.0212661   -2.3071511    0.6834176 
O    -0.8593369   -3.3859708    0.5362460 
C    -0.2367644   -1.1078235    0.0600338 
O    -1.1911543   -0.7142401   -0.8102959 
H     1.1629280    1.2055835   -1.0041189 
H     1.5077293    1.6536932    0.6812444 
H    -0.1709193    1.6234886    0.0839728 
H     3.5152430   -0.3116462    1.4391172 
H     2.7412610   -0.3389025    2.8879514 
H     1.5815921   -2.9036905    2.1308926 
H    -0.3539132   -4.1310868    0.2072934 
H    -1.7733175   -1.4668573   -0.9437600 
N     2.1636216   -2.1040924   -1.8858293 
N     2.9418341   -1.5745833   -1.3355184 
