16
Energy = -538.3210266027
H     2.5469277    4.8424367   -2.7984208 
N     2.0977832    3.9687995   -3.0012054 
H     1.9949264    4.0992364   -5.1388831 
N     3.9518289    0.9457534   -2.7130286 
N     3.7578870    0.3321698   -1.8337844 
C     1.7258332    3.5352008   -4.2595086 
N     1.0067899    2.4421962   -4.2471201 
C     0.8593774    2.1639228   -2.9196092 
C     1.4762192    3.1082912   -2.1445201 
N     0.4539041    0.7523396    0.2092234 
C     0.7901697    1.4248846   -0.9481759 
N     0.4221817    1.1030470   -2.1543640 
N     1.5115769    2.6138813   -0.8592069 
H     1.5464154    3.1496337   -0.0102696 
H    -0.0807430   -0.0739147   -0.0119015 
H     1.2452203    0.5194174    0.7916007 
