18
Energy = -584.2330068661
N     1.3823201    0.9816031   -0.4316164 
H     1.3587590    0.7383071    0.5564798 
C     2.3183482    1.7587773   -0.6986432 
O     3.2875677    2.3180632    0.1035862 
C     4.0396576    2.8042271   -1.0455332 
H     4.2569697    3.8645908   -0.9386861 
C     5.2785341    1.9525563   -1.3093585 
O     5.3252496    1.4914607   -2.6439670 
C     4.1514615    0.8333549   -2.9937028 
O     3.0745457    1.7243048   -3.1198069 
C     2.8471160    2.4356201   -1.9534870 
H     2.2369385    3.3023130   -2.2074676 
H     5.2622241    1.1016702   -0.6161742 
H     6.1959847    2.5151687   -1.1442400 
H     3.9112490    0.0575932   -2.2493062 
H     4.3003691    0.3900916   -3.9752120 
N     4.9711635    4.2828037   -4.9468444 
N     4.8173938    4.5436641   -3.9007582 
