16
Energy = -583.0564642280
N     1.2797429    1.0941540    0.5172816 
C     1.1825379    1.0132627   -0.8639011 
C     1.7781576    0.1439836   -1.7258751 
O     1.3195118    0.3258679   -2.9936737 
C     0.4323832    1.3319117   -2.9612510 
C     0.3092521    1.7880787   -1.6920819 
O    -0.6099577    2.7434921   -1.3206672 
C    -0.2357286    3.7394194   -0.5116796 
O     0.8511024    3.9060365   -0.0439454 
H     1.9846452    0.4827665    0.8975471 
H     1.4226330    2.0453862    0.8283869 
H     2.5010952   -0.6401655   -1.5852425 
H    -0.0410349    1.6139500   -3.8849814 
H    -1.1007614    4.3917210   -0.3415724 
N    -1.5971253   -1.1379851   -2.1216569 
N    -0.9200354   -1.7679636   -1.5451002 
