18
Energy = -601.3101054945
H    -5.0356122    0.0230816    1.0065185 
H    -3.5742394   -1.5686110   -0.2973464 
C    -3.9842385    0.1768283    0.8250271 
N    -3.2344169   -0.7152501    0.1038734 
O    -4.5454773    3.6186408    2.7906131 
N    -3.2858619    1.2097238    1.2479354 
C    -1.9576840   -0.2136268    0.0571276 
C    -2.0437862    0.9622859    0.7676796 
C    -3.4292397    3.6983072    2.5067434 
O    -2.3069094    3.8520697    2.2572406 
N     1.3737124    1.1333228   -0.0809984 
C     0.0533625    0.7222408    0.1016272 
C    -0.6145974   -0.3916235   -0.3716006 
N    -0.8018899    1.5391442    0.8028889 
H    -0.5896868    2.4726965    1.1034450 
H     1.9022606    1.1675724    0.7805347 
H     1.8562664    0.5464438   -0.7428238 
H    -0.1651392   -1.2032587   -0.9193875 
