16
Energy = -637.1503553687
N     1.0371941    0.9755870   -0.1429932 
C    -0.0093838    1.7211482    0.3571739 
C    -0.9685530    1.5256812    1.2939833 
N    -1.5438083    0.7486337    2.2762529 
H    -1.3454828   -0.2114427    2.4884096 
C    -2.6244742    1.4725972    2.7133431 
N    -2.7930094    2.6331125    2.1484189 
C    -1.7583748    2.6971464    1.2400705 
N    -1.3536338    3.5581244    0.3382139 
O    -0.2337607    2.9244483   -0.2044065 
H     1.6820743    0.6576078    0.5652775 
H     1.5260182    1.4584415   -0.8823487 
H    -3.2701503    1.0751322    3.4841897 
C    -0.4299258   -1.6452763   -0.4279828 
O    -0.4745860   -1.6251946   -1.5800700 
O    -0.3977971   -1.6955155    0.7308954 
