19
Energy = -663.2835592567
N     2.2527583    0.4056144   -0.4520224 
H     2.2625463   -0.3971945   -1.0779585 
C     2.4279718    1.4779156   -1.0838693 
O     2.6045333    1.5585811   -2.4282793 
C     2.8847184    2.9063987   -2.8225634 
H     3.0735773    2.8816733   -3.8928714 
C     1.6896440    3.7599407   -2.4484580 
O     1.4741230    3.6469530   -1.0494721 
C     2.4837544    2.8435671   -0.4548186 
H     2.2917307    2.7885612    0.6121361 
C     3.8402199    3.4444196   -0.7785736 
O     4.0381030    3.3571717   -2.1930811 
H     0.7984419    3.4177051   -2.9810376 
H     1.8881270    4.8028084   -2.7128003 
H     4.6472871    2.9013242   -0.2831178 
H     3.8618487    4.4926804   -0.4681547 
C     2.3061561    0.0338485    2.3712586 
O     2.5409414    1.1548692    2.5476088 
O     2.0767793   -1.0931012    2.2608081 
