19
Energy = -626.0231428372
O     1.1991181    0.6681098   -0.5311081 
C    -0.0510132    0.1270846   -0.1587219 
C    -0.4683245   -1.0131578   -1.0140860 
C     0.0293489   -2.4634458   -1.1537636 
H     0.8785408   -3.0095270   -0.7729234 
C    -1.4202771   -2.8639018   -1.3067668 
H    -1.9702967   -3.7423813   -1.0011411 
N    -1.8902060   -1.4348810   -1.1429141 
C    -1.1068811   -1.0619190   -2.3576995 
H    -1.4417145   -0.2854857   -3.0357719 
C    -0.6339249   -2.5320010   -2.5233204 
O    -0.3523428   -3.3071537   -3.5996901 
H     1.0972414    1.1150661   -1.3733749 
H    -0.8505577    0.8781587   -0.1763025 
H     0.0580193   -0.2093787    0.8747957 
H     0.5490563   -3.1257065   -3.8804622 
C     1.9381477   -0.3353897   -3.7008986 
O     1.7321603    0.7976967   -3.5993484 
O     2.1464434   -1.4674089   -3.8174109 
