18
Energy = -601.2530823215
N     0.8267530    0.9268030   -0.1431524 
C    -0.1728436    0.0810931    0.2293144 
C    -0.8379378    0.2593287    1.4227326 
N    -1.8793546   -0.4266124    1.9326598 
C    -2.6609755   -1.2396727    1.3174436 
C    -2.6723974   -1.6092597   -0.0962383 
N    -3.6939014   -2.0129518   -0.7500427 
H    -4.5301877   -1.9665597   -0.1675758 
C    -1.3755629   -1.6819500   -0.7863775 
N    -0.3362793   -0.9530320   -0.6592068 
H     1.1577147    1.6040861    0.5187923 
H     1.4899793    0.5789531   -0.8145351 
H    -0.4383710    1.0205760    2.0873839 
H    -3.4453257   -1.7074572    1.9147732 
H    -1.3155211   -2.4844995   -1.5209850 
C     1.7245057   -1.7967253   -2.4921115 
O     1.0941292   -2.7235909   -2.7691705 
O     2.3958532   -0.8832316   -2.2483749 
