19
Energy = -626.1477914784
O     1.1460991    1.0070133   -0.0358364 
C     0.1828719    0.0452173    0.2528259 
C    -0.6661451    0.2222357    1.5641015 
N    -0.1143117   -1.0659129    2.0043805 
C     0.5941527   -1.2897891    0.8459060 
C     0.9113562   -2.6209455    0.7765566 
C     0.3624886   -3.2095560    1.9571598 
C    -0.3109714   -2.2266553    2.6610509 
O    -1.0015701   -2.2387348    3.8189501 
H     1.8143475    0.9801448    0.6546192 
H    -0.4445359   -0.0371860   -0.6354409 
H    -1.7469406    0.2057387    1.4206641 
H    -0.3759298    1.0635905    2.1935685 
H     1.4556424   -3.1362247    0.0019954 
H     0.4927644   -4.2306440    2.2822447 
H    -1.0108995   -3.1338633    4.1608600 
C     2.9201857   -0.5392791    3.0006091 
O     3.0097548   -1.5630867    3.5230984 
O     2.8540728    0.5043581    2.4972826 
