17
Energy = -658.3060350797
N     0.8384204    0.4497053   -0.5412911 
C    -0.4789301    0.8063610   -0.3806828 
N    -1.3452264    0.2501422    0.4028276 
C    -2.5538922    0.8865284    0.1319494 
C    -3.8460015    0.7018885    0.6833698 
O    -4.7972667    1.3978796    0.3060308 
C    -2.3571828    1.8525811   -0.8344892 
O    -3.2265632    2.6787177   -1.3599879 
N    -1.0416492    1.8058267   -1.1624294 
H    -0.5973104    2.3197502   -1.9028125 
H     1.1051074   -0.2557877    0.1303059 
H     1.4903002    1.2192037   -0.5487234 
H    -3.9886687   -0.0711771    1.4537877 
H    -4.0689921    2.4327545   -0.8820148 
C    -0.6072210   -1.7286329    2.2244446 
O     0.4943776   -1.6542572    1.8683581 
O    -1.6815173   -1.8548940    2.6275271 
