19
Energy = -568.2831432438
C     1.0500717    1.4456182    0.1021237 
N     1.2186831    0.5679949    1.2287788 
C     0.4807240    0.5657526    2.4086565 
C    -0.6279945    1.5148592    2.6534607 
C     1.0164998   -0.4351021    3.1572787 
N     2.0546665   -1.0499836    2.4881908 
C     2.1333970   -0.4184970    1.3521389 
O     2.9960124   -0.6577932    0.3623987 
H     0.0441682    1.3568238   -0.3118222 
H     1.7702615    1.1686040   -0.6637553 
H     1.2225091    2.4849256    0.3879645 
H    -1.0542322    1.3256566    3.6378281 
H    -1.4317454    1.4118821    1.9181056 
H    -0.2945903    2.5567963    2.6303364 
H     0.7178099   -0.7542754    4.1428918 
H     3.5509589   -1.3945708    0.6508569 
C     3.8603562   -3.0666447    2.8584566 
O     4.2946104   -2.8561520    1.7999589 
O     3.4990528   -3.3484644    3.9155436 
