17
Energy = -662.0492738907
N     0.9320024    1.1995468   -0.4653704 
C     0.7485698    0.6819224   -1.6825785 
O     0.5651740    1.3228100   -2.6990722 
C     0.7401941   -0.8584886   -1.7930618 
H    -0.0553977   -1.2301645   -1.1331106 
O     0.5188906   -1.2119131   -3.1067874 
C     2.0359229   -1.4187755   -1.2240106 
O     2.2308159   -1.4432033   -0.0288942 
C     3.0126266   -1.8875553   -2.1723551 
C     3.8426477   -2.2686657   -2.9520760 
H     0.9737650    2.1987933   -0.3699943 
H     1.1665633    0.6202176    0.3244674 
H     0.4544301   -0.3659144   -3.5832725 
H     4.5782173   -2.6079502   -3.6431711 
C     2.0459576   -0.8746937    2.7684334 
O     1.6435386    0.1672848    2.4547080 
O     2.4413518   -1.9025746    3.1096029 
