17
Energy = -584.0563317193
N     1.0935168    1.2698144   -0.1751438 
H     0.7250950    0.8818405   -1.0352207 
C     0.4547937    2.2533178    0.4935701 
C     0.9976316    2.7464345    1.6577333 
N     2.1490233    2.3090644    2.1933428 
C     2.7686522    1.3499278    1.5382702 
C     3.9661574    0.6314363    1.7518665 
C     4.0464972   -0.2437662    0.6882143 
N     3.0032488   -0.1641309   -0.2099668 
C     2.2481036    0.7810572    0.2967800 
H    -0.4717514    2.6136146    0.0733912 
H     0.4768155    3.5351923    2.1858543 
H     4.6608007    0.7450420    2.5671850 
H     4.8331273   -0.9633444    0.5057838 
C     2.1001647   -1.2931718   -2.5606848 
O     2.9813218   -2.0270123   -2.6709937 
O     1.1759997   -0.5878401   -2.5293560 
