19
Energy = -663.2970943233
C     1.0494484    1.0394855    0.0994915 
C     0.3604101   -0.0608346    0.8209330 
C    -0.6530954    0.0214338    1.7127054 
O    -1.2841021    1.0916581    2.2132659 
O    -1.0507005   -1.1831240    2.1581150 
C    -0.2432501   -2.1091305    1.5275655 
O    -0.4465107   -3.4026508    1.8180022 
C     0.6288118   -1.4753978    0.7145735 
N     1.5391019   -2.0643945   -0.1671349 
H     0.9790039    0.9103914   -0.9840618 
H     2.1119511    1.0958457    0.3567907 
H     0.6022237    2.0007913    0.3509468 
H    -2.0031412    0.7885444    2.7728946 
H    -1.0082609   -3.7988201    1.1422766 
H     2.3523168   -1.4892393   -0.3259802 
H     1.8258332   -2.9830502    0.1371546 
C    -1.0459130   -2.4547898   -1.7090436 
O    -1.2314402   -3.4565383   -1.1539361 
O    -0.8969388   -1.4684931   -2.2886375 
