19
Energy = -663.2372247637
O     0.9977063    0.4769149   -0.2227824 
C     1.6938205    1.5530561   -0.7314556 
H     2.7369260    1.2674090   -0.9046855 
C     1.1047575    2.2743555   -1.9854181 
H     1.5228117    1.9975370   -2.9515976 
O    -0.2920419    2.1054464   -2.0552557 
C     1.5183869    3.6031291   -1.3705760 
C     2.3610321    4.6696888   -1.9575788 
N     0.9719318    4.9229498   -1.6267797 
C     1.6660660    2.9299843   -0.0245983 
O     1.6338549    3.3083414    1.1047980 
H     0.0809998    0.5860509   -0.5016542 
H    -0.7212418    2.7115328   -1.4407439 
H     2.6434642    4.5598606   -2.9989228 
H     3.0812128    5.1690693   -1.3204227 
H     0.3921296    4.8862673   -2.4596699 
C    -0.9516906    4.9447519    0.6584308 
O    -0.5916106    5.8701749    1.2405612 
O    -1.3604432    4.0174839    0.0891102 
