19
Energy = -659.4863688684
C     1.3929909    0.3437892    0.2427975 
N     0.0878306   -0.1957321    0.4986610 
N    -0.5202010    0.0097905    1.6950046 
C    -1.6698021   -0.6138734    1.5355430 
O    -2.6048325   -0.6778482    2.4741941 
N    -1.8409798   -1.1972718    0.3337746 
C    -0.7136512   -0.9111876   -0.2915346 
C    -0.4392799   -1.3569012   -1.6889129 
O    -1.5122752   -2.0977844   -2.1841999 
H     1.3655658    1.4333835    0.2753815 
H     1.7216891    0.0214326   -0.7430574 
H     2.0975629   -0.0145101    0.9930172 
H    -2.2815774   -0.2056650    3.2509732 
H     0.4780061   -1.9610085   -1.7083795 
H    -0.2587921   -0.4795001   -2.3248650 
H    -2.1777416   -2.1259966   -1.4838176 
C     0.0824518    1.1844897    4.1483749 
O    -0.9756322    0.8677763    4.5047184 
O     1.1442115    1.5248218    3.8523245 
