17
Energy = -662.0409974219
O     0.9013630    0.7578490    0.0791554 
C     0.6254463    0.0971316   -1.0666815 
C     1.5769531   -0.4373167   -1.9120987 
N     0.9393677   -1.0285396   -3.0043783 
C    -0.3829768   -0.9317041   -2.7801772 
C    -0.6216698   -0.2559614   -1.6312733 
O    -1.9379308    0.1786460   -1.6351120 
C    -2.5045960   -0.6623999   -2.6332738 
O    -1.4798013   -0.9762736   -3.5865359 
H     0.0916976    1.1443199    0.4211774 
H     2.6342463   -0.5582374   -1.7523196 
H     1.3917610   -1.6281262   -3.6683912 
H    -3.3168574   -0.1433743   -3.1349019 
H    -2.8289224   -1.6000313   -2.1621481 
C    -2.8625604    1.9647185    0.2703877 
O    -3.9242578    1.9931543   -0.1796109 
O    -1.8084551    1.9620781    0.7531438 
