17
Energy = -621.0478843031
C     0.5356437    0.7268315   -0.0017166 
C     1.1874415    2.0241245    0.5241054 
H     1.9923952    2.5687316    0.0385585 
C    -0.2812103    2.4907767    0.6225183 
N    -0.5931463    1.0458562    0.9584596 
C     0.1395412    0.9443912    2.2044055 
C     1.4236078    1.6147717    1.9892084 
O     2.3718639    1.8012250    2.7012696 
N    -0.3124621    0.3627237    3.2593168 
N    -0.6582271   -0.1328766    4.2096094 
H     1.0273113   -0.2286891    0.1778750 
H     0.1781990    0.8008874   -1.0290647 
H    -0.7241568    2.7500308   -0.3394322 
H    -0.5637575    3.2067557    1.3935880 
C    -3.1597695    0.0135547    0.4280271 
O    -3.2886463   -0.4086575    1.4973213 
O    -3.0828714    0.4155720   -0.6549743 
