19
Energy = -659.4794273926
C     1.1202755    0.6415964   -0.2238268 
N     0.2600573    0.0580989    0.7624307 
N    -1.0924358    0.2130006    0.6821490 
C    -1.5739839   -0.4331461    1.7252676 
O    -2.8866715   -0.5020668    1.9812377 
C    -0.5606220   -1.0211498    2.5074082 
N    -0.5517212   -1.7944736    3.6876385 
C     0.5918871   -0.6673948    1.8338463 
O     1.8585394   -0.9604551    2.1360585 
H     2.1492431    0.3937352    0.0274464 
H     1.0014410    1.7259228   -0.2381552 
H     0.8836813    0.2489901   -1.2136740 
H    -3.3471408   -0.0163908    1.2864288 
H    -1.0557507   -2.6643053    3.5817545 
H    -0.9520906   -1.3013833    4.4740429 
H     1.8139364   -1.4870514    2.9451010 
C    -2.7662099    1.4674303   -1.1076687 
O    -3.6708181    1.1247849   -0.4660016 
O    -1.9196887    1.8434497   -1.7956417 
