19
Energy = -659.4921546268
C     1.2614969    1.5930800   -0.1949247 
N     0.1568813    0.9814442   -0.9229668 
C     0.3292086    0.9211671   -2.3107917 
C    -0.4579144    1.5520040   -3.2157214 
O    -1.5425448    2.3326655   -3.0915491 
N     0.0504962    1.2578835   -4.4597652 
C     1.1284062    0.4595630   -4.2422223 
O     1.8281290    0.0089902   -5.2853249 
N     1.3397189    0.2301153   -2.9854272 
H     1.3775931    2.6262786   -0.5256288 
H     2.2161153    1.0761558   -0.3421502 
H     1.0287542    1.6025846    0.8710827 
H    -0.0424017    0.0651483   -0.5433122 
H    -1.7210365    2.3830048   -2.1458099 
H    -0.3048915    1.5642052   -5.3469770 
H     2.5391815   -0.5391839   -4.9293568 
C     3.4382139   -1.4437787   -2.4086898 
O     3.6739147   -1.5188006   -3.5441413 
O     3.2763990   -1.4269316   -1.2672242 
