17
Energy = -621.1588669184
N     0.5552779    0.4677203   -0.1285116 
C     0.0946199    1.4709744    0.6146433 
N    -0.3183260    2.5710393    0.0569598 
C    -0.9949909    3.5532299    0.6809565 
C    -1.7107626    3.5150911    1.8433092 
C    -1.7974807    2.3821083    2.6896992 
N    -0.9695561    1.3974871    2.8076050 
C     0.1859736    1.2469798    2.1076926 
O     1.2290629    0.8497271    2.5753402 
H     0.6086441    0.5829913   -1.1273980 
H     1.1039865   -0.2434463    0.3221714 
H    -1.0347632    4.4713309    0.1010128 
H    -2.3349033    4.3682484    2.0783192 
H    -2.6696402    2.3272156    3.3414453 
C     0.1400048    3.0684409   -2.6951120 
O    -0.2232360    4.1581432   -2.5787573 
O     0.5135433    1.9851598   -2.8750297 
