20
Energy = -639.6325675592
C     0.4956817    1.3248159   -0.6767785 
N    -0.0943462    0.9891539    0.6116358 
C    -1.1061760    1.8376618    1.0545341 
C    -2.3575301    2.1632297    0.6218729 
O    -3.0019846    1.6577425   -0.4455190 
N    -2.9324280    3.1163664    1.4130338 
C    -2.0447132    3.3818901    2.3475752 
N    -2.2531256    4.2350852    3.4124307 
N    -0.9275434    2.6561422    2.1824539 
H    -0.2290733    1.3373298   -1.4990380 
H     1.2799403    0.6027038   -0.9114879 
H     0.9566330    2.3115390   -0.6142650 
H    -0.3786805    0.0208867    0.6383603 
H    -3.8556373    2.0999033   -0.4964797 
H    -3.1199164    4.7393989    3.3005317 
H    -1.4884239    4.8650781    3.5994986 
H    -0.1456526    2.5883978    2.8079449 
C    -5.3361884    4.2273538    0.9279717 
O    -5.4998000    3.5373811    0.0111570 
O    -5.2596231    4.9557070    1.8229620 
