19
Energy = -622.3764020656
N     1.7593205    0.5971180   -0.2952905 
H     2.4165321    1.2494075   -0.7102499 
C     0.7918104    0.3855642   -1.0797529 
C     0.5485204    0.9730919   -2.4357364 
C    -0.9192928    1.3350277   -2.6101308 
N    -1.8012132    0.2368024   -2.2850989 
C    -1.4204932   -0.5822492   -1.4042284 
N    -0.2102753   -0.5291036   -0.7030561 
C     0.0092370   -1.4345165    0.3396279 
O    -0.8172627   -2.2204702    0.7108064 
H     0.8171029    0.2184210   -3.1830417 
H     1.1986960    1.8355098   -2.5815893 
H    -1.1169587    1.6438560   -3.6372820 
H    -1.1828962    2.1873118   -1.9728558 
H    -2.0498998   -1.4116381   -1.1006260 
H     1.0169828   -1.3339016    0.7580989 
C    -4.0862529   -0.1785976   -3.8080404 
O    -4.4124814   -1.0833029   -3.1650474 
O    -3.8149599    0.7153636   -4.4923510 
