16
Energy = -674.4058083061
N     1.2805617    0.4425115    0.0168847 
H     0.2952675    0.5462917    0.2256757 
C     1.5439693    0.6179017   -1.2113196 
N     2.8443446    0.5093122   -1.6510025 
C     3.2863979    0.6696825   -2.9391650 
O     4.4389026    0.5626322   -3.2666647 
N     2.2789702    0.9687539   -3.8389237 
C     0.9419738    1.1080784   -3.5501423 
O     0.1050846    1.3690030   -4.3749043 
N     0.6452065    0.9197807   -2.2170064 
H     3.5368003    0.2883530   -0.9494563 
H     2.5536295    1.0959417   -4.7991886 
H    -0.3277506    1.0169609   -1.9813085 
C     3.2837534   -0.1938448    1.9287539 
O     4.0834719   -0.1600284    1.0881834 
O     2.5354998   -0.2417376    2.8050957 
