18
Energy = -584.3282212892
C     1.1972256    0.9111426    0.0765559 
C     1.2495777    0.4578893    1.4867985 
C     0.2702505    0.5076557    2.4340477 
N    -1.0547215    0.9594629    2.4724196 
N     0.8411039   -0.0447171    3.5802957 
C     2.0993308   -0.3854981    3.2616823 
O     2.9028496   -0.9449904    4.1657977 
N     2.3945386   -0.1064769    2.0226790 
H     0.2157065    1.3222942   -0.1624817 
H     1.3999405    0.0851909   -0.6090537 
H     1.9482223    1.6805604   -0.1170210 
H    -1.1431614    1.9486814    2.2935220 
H    -1.6658697    0.4547896    1.8476695 
H     0.3841300   -0.1574786    4.4667719 
H     3.7479259   -1.1061784    3.7258423 
C     4.9135124   -0.7612629    1.1919532 
O     5.1511647   -1.1602535    2.2578548 
O     4.7700539   -0.3913204    0.1096706 
