18
Energy = -601.2744687355
N     0.9116242    1.6059627   -0.8374251 
C    -0.1180332    0.7163002   -0.8663199 
N     0.1392307   -0.5445716   -0.8410735 
C    -0.8949949   -1.4577111   -1.0296393 
N    -0.9833405   -2.2836271   -1.9797176 
H    -0.2149649   -2.1365190   -2.6295790 
N    -1.8343724   -1.5254877    0.0173806 
C    -2.6035146   -0.5324816    0.2040409 
C    -2.5681784    0.7434522   -0.4946400 
C    -1.4519967    1.3099851   -0.9749202 
H     1.8229244    1.2284624   -0.6333219 
H     0.7323544    2.5473259   -0.5422950 
H    -3.3614843   -0.6320687    0.9822933 
H    -3.4936039    1.3089360   -0.5294297 
H    -1.5049951    2.3112345   -1.3903550 
C     2.8375326   -1.5268377   -0.7187661 
O     3.2234106   -0.4755109   -0.4120861 
O     2.5123874   -2.5898508   -1.0254093 
