19
Energy = -700.3292936789
O     0.1482361    0.4850802    0.0173338 
N     0.7101916   -0.2539431    1.0581082 
C     0.9654045    0.4749397    2.0520703 
C     0.6032673    1.8918856    2.4263896 
H     1.4182501    2.6025885    2.2527315 
O    -0.6256653    2.3824547    1.9723208 
C     0.5647993    1.3948725    3.8995516 
H     1.0019724    2.0406866    4.6626561 
O    -0.7324399    1.0035053    4.2457268 
C     1.3735498    0.1302059    3.4732851 
H     2.4478344    0.2675318    3.6198176 
O     1.0004172   -1.0736394    4.0322745 
H    -0.0473877   -0.1916998   -0.6392739 
H    -0.7777739    2.0026060    1.1001108 
H    -1.3246903    1.4396442    3.6180398 
H     0.0463184   -1.0207269    4.1651904 
C     0.5593144   -2.8584027   -0.1133196 
O     0.0701653   -2.2582344   -0.9803876 
O     1.0372373   -3.4986539    0.7166185 
