17
Energy = -658.2484086269
C     1.3643436    0.7748064   -0.3856423 
N    -0.0180642    0.8324219    0.0259527 
N    -0.4446483    1.8276576    0.7581643 
N    -1.7204095    1.6549537    0.9979429 
C    -2.1111617    0.5203898    0.4015099 
O    -3.3513914    0.0580918    0.4524137 
C    -1.0248350   -0.0503954   -0.2471744 
C    -0.9136851   -1.2597279   -1.0258909 
O     0.1058012   -1.6554966   -1.5463623 
H     1.8503326    1.6552429    0.0262476 
H     1.4301268    0.7702784   -1.4717864 
H     1.8282573   -0.1342146   -0.0081247 
H    -3.8805591    0.6741041    0.9791900 
H    -1.8625824   -1.8190224   -1.1156705 
C    -3.7666505    3.0599348    2.4288503 
O    -4.4780172    2.2028589    2.0941559 
O    -3.1083416    3.9329895    2.7879342 
