17
Energy = -662.1141109137
O     1.1108940    0.9849330    0.0317773 
C     0.1984544    0.9760831    1.0212178 
C    -1.1550890    0.9239633    1.0611963 
C    -1.5147902    0.9480197    2.4619847 
C    -2.7271758    0.9206237    3.1903857 
O    -2.7477011    0.9537042    4.4298073 
C    -0.3235548    1.0142993    3.1761526 
O    -0.1781564    1.0564418    4.4817859 
N     0.7071502    1.0310278    2.3092290 
H     1.6813375    1.0774162    2.5576779 
H     0.6558363    0.9467721   -0.8108477 
H    -1.8226709    0.8744417    0.2165864 
H    -3.6787921    0.8683518    2.6372476 
H    -1.1299125    1.0282652    4.8052628 
C     2.4776442    1.2908623    5.5791081 
O     2.8713171    1.2247144    4.4897426 
O     2.1166261    1.3593807    6.6718715 
