17
Energy = -604.1728494962
C     0.9627417    0.3069254   -0.0956147 
N    -0.2298549    1.0563315    0.2015058 
C    -0.9850805    0.9803364    1.3509599 
O    -0.5728085    0.1178054    2.3035803 
C    -2.0148402    1.8530225    1.2121755 
N    -1.9122878    2.4808918   -0.0234646 
C    -0.8519711    1.9802067   -0.5757955 
O    -0.3464047    2.2779023   -1.7752650 
H     1.7375272    0.5092677    0.6445471 
H     1.3170141    0.6084106   -1.0780610 
H     0.7532155   -0.7632769   -0.1011963 
H    -1.1793269    0.1653780    3.0438108 
H    -2.8140336    2.0756449    1.8993061 
H    -0.9226038    2.9523417   -2.1584374 
C    -3.2245015    4.3896430   -1.4781528 
O    -4.0472694    4.5796105   -0.6941131 
O    -2.4380766    4.2669355   -2.3262037 
