14
Energy = -635.9168137038
O     0.9237570    0.8178349    0.2951207 
C     1.0405618    2.0859241    0.6773642 
N     1.8178888    2.5798252    1.5779539 
C     2.5811102    1.6415527    2.1681654 
N     3.4744003    1.7488283    3.1081301 
C     3.8885430    0.4352348    3.2625424 
N     3.3450629   -0.4972587    2.5115551 
C     2.4708075    0.2327128    1.7638877 
N     1.6691645   -0.1955592    0.8515343 
H     0.3606153    2.7089136    0.1077650 
H     4.6486491    0.1910088    3.9935275 
C     4.4187417   -3.1180620    3.1285539 
O     5.0716373   -2.5721003    3.9147461 
O     3.7872901   -3.7023839    2.3575630 
