19
Energy = -663.2871753784
O     0.3407958    1.0983786    0.7041134 
C     1.4694122    1.5777217    1.3951029 
C     1.4909384    1.2076324    2.8783276 
O     0.9688536    2.3293835    3.5999133 
C     0.9812392    3.4434883    2.8420521 
O     0.6339530    4.5113213    3.2448178 
C     1.4891423    3.0834751    1.4790797 
C     2.4722449    3.9559201    0.7931091 
N     1.0895585    3.9223993    0.3636511 
H    -0.4395885    1.5797138    0.9984648 
H     2.3339645    1.1634538    0.8762510 
H     2.5063093    1.0133652    3.2312312 
H     0.8604144    0.3447482    3.0848915 
H     3.2269805    3.4669855    0.1868827 
H     2.7727147    4.8738374    1.2838964 
H     0.9751251    3.3273903   -0.4514214 
C    -1.7150116    4.4823588    1.2808339 
O    -1.7591312    5.6257173    1.1525789 
O    -1.7223711    3.3267402    1.4034229 
