17
Energy = -658.2738458977
C     0.3288411    0.3136348   -0.7307797 
N    -0.3953738   -0.2218604    0.3959712 
N    -1.6472582    0.1790876    0.6418801 
C    -1.9749657   -0.5134912    1.7286725 
O    -3.1571697   -0.4132912    2.3180982 
N    -1.0184459   -1.3244791    2.1873681 
C    -0.0281173   -1.1203993    1.3245611 
C     1.2596022   -1.8127227    1.4302492 
O     2.1932892   -1.6697020    0.6812562 
H    -0.2105163    0.0823087   -1.6487775 
H     1.3163032   -0.1363719   -0.7483266 
H     0.4058031    1.3955775   -0.6281801 
H    -3.6891628    0.2243835    1.8264752 
H     1.2922924   -2.5015981    2.2923199 
C    -3.5560091    1.9564079   -0.4586493 
O    -4.2636091    1.6245254    0.3995298 
O    -2.8913428    2.3181709   -1.3286691 
