16
Energy = -682.3208151493
F     0.9747859    1.2163962   -0.3807482 
C     1.9437839    0.8848099   -1.2350858 
C     3.0456566    0.1063535   -0.7034727 
N     4.0051092   -0.1916392   -1.6594218 
C     4.0112289    0.1580583   -2.9864186 
O     4.8915500   -0.1452614   -3.7558244 
N     2.9103993    0.8961372   -3.3718617 
C     1.8990602    1.2523314   -2.5174892 
H     1.0823780    1.8320633   -2.9238932 
N     3.1987345   -0.3023628    0.4920477 
H     2.4209197   -0.0087627    1.0724081 
H     4.7976116   -0.7339458   -1.3426059 
H     2.8902419    1.1650873   -4.3392480 
C     5.4109425   -1.8522862    1.3286601 
O     5.0270317   -1.9502791    2.4120668 
O     5.8536640   -1.7929012    0.2574047 
