18
Energy = -584.3303841377
C     1.0661747    1.2520620   -0.0385707 
C    -0.4081515    1.3300390    0.0494025 
C    -1.2754012    1.2940656    1.1018145 
N    -1.0034595    1.1933820    2.4631914 
N    -2.5776019    1.4451376    0.6741137 
C    -2.4972061    1.5678029   -0.6226346 
O    -3.5134139    1.7361357   -1.4688600 
N    -1.2355325    1.5007666   -1.0685633 
H    -0.9490834    1.5668403   -2.0275122 
H     1.4898983    2.0983408   -0.5887827 
H     1.4211635    0.3343840   -0.5201553 
H     1.4910148    1.2820325    0.9652334 
H    -0.3146694    0.4934152    2.6882967 
H    -1.8501330    1.0303135    2.9866406 
H    -4.3206256    1.7433983   -0.9391882 
C    -5.0362024    1.3710736    1.7917477 
O    -5.5166183    1.5793022    0.7549348 
O    -4.6517365    1.1597903    2.8590985 
