17
Energy = -658.1696134175
N     1.5793564    0.4312841   -0.7149253 
C     0.4952924   -0.1782188   -1.2728378 
N    -0.0820348   -1.2464339   -0.8013943 
O    -1.1500148   -1.4841034   -1.6195692 
N    -1.2239759   -0.5760965   -2.6027426 
C    -0.2420954    0.2505610   -2.4209403 
C    -0.0035268    1.4055017   -3.2942995 
H    -0.4950732    1.3589452   -4.2607452 
C     0.3273642    2.7186605   -2.7392010 
O     1.3325156    1.8978118   -3.3147780 
H     2.0803692   -0.1285684   -0.0433833 
H     2.1580374    0.9230150   -1.3769246 
H     0.3887101    2.8379751   -1.6618692 
H     0.0730920    3.6065158   -3.3087911 
C     1.2213429   -2.8391599    1.2470731 
O     2.0680239   -2.0460280    1.2188550 
O     0.4046524   -3.6508923    1.3077787 
