17
Energy = -666.2701286539
H    -3.9558434    2.4934755    2.0366839 
N    -2.0023147    2.1632905    0.8761857 
C    -1.5650530    0.4879506    2.4670163 
F    -1.9571263   -0.1782900    3.5517498 
C    -3.5876459    4.2004593   -0.1681933 
C    -2.3773531    1.4959167    1.9430528 
O    -3.5442056    1.7800072    2.5402548 
O    -4.3993896    4.0174588    0.6411022 
C    -0.8428983    1.8857964    0.2830311 
H    -0.5993594    2.4784496   -0.5935258 
H     1.5364693    1.3142485   -0.5498548 
N     1.1950117    0.5848149    0.0538688 
O    -2.8222359    4.4359721   -0.9991669 
C     0.0239953    0.8990351    0.7320780 
C    -0.3709086    0.1839171    1.8670525 
H     0.2408521   -0.6085937    2.2810599 
H     1.9310895    0.2097852    0.6285607 
