20
Energy = -684.3612286230
O     0.2870619    1.0967105    0.1072493 
C    -0.0937827    1.4672152   -1.1828639 
H    -0.8392002    2.2644172   -1.1355979 
C     1.0558409    1.9235957   -2.0960320 
H     1.3923975    2.9479168   -1.9735806 
C     2.1461979    0.8637457   -2.1220411 
O     1.5150023   -0.1883137   -2.8771252 
C     0.2553677    0.3581237   -3.2462003 
H    -0.0924091   -0.0977138   -4.1695393 
O     0.4653528    1.7299456   -3.3870042 
C    -0.6417605    0.2530094   -2.0064152 
H    -1.6968174    0.3680802   -2.2503648 
O    -0.4816878   -0.9599272   -1.3187592 
H     0.0644472    0.1581704    0.1911936 
H     2.4110889    0.5060013   -1.1272707 
H     3.0380039    1.1991114   -2.6528469 
H     0.3903210   -1.2898257   -1.5751747 
C     2.1819676    2.5019085    1.5691268 
O     2.0879047    1.7908660    2.4749057 
O     2.3107100    3.2339659    0.6807609 
