16
Energy = -674.3474449426
N     2.5768933    0.3459981    0.2549900 
C     1.3738995   -0.2162901    0.0457575 
N     0.2627378    0.3970770   -0.1980514 
N    -0.6869105   -0.6064199   -0.2689589 
H    -1.6456320   -0.3752526   -0.4462833 
C    -0.2040161   -1.8506184   -0.0778864 
O    -0.7401566   -2.9304777   -0.0751911 
N     1.1839757   -1.5913819    0.1302142 
C     2.1237367   -2.5830227    0.3039285 
O     3.3033848   -2.3715421    0.4164472 
H     2.6741219    1.3142147    0.0036639 
H     3.3765774   -0.2646524    0.2336428 
H     1.6599582   -3.5784233    0.3201458 
C     0.2674866    3.1577855   -0.8145959 
O     1.4163833    3.1655658   -0.6578246 
O    -0.8734528    3.2027680   -0.9834704 
