17
Energy = -658.1816671283
O     0.9145745    1.0706500    0.0105906 
C    -0.3738489    1.4935380    0.3674036 
H    -0.2404166    2.3489499    1.0278733 
C    -1.2655095    1.8803185   -0.8513728 
N    -2.0809769    0.6869523   -1.1563243 
C    -2.1830259   -0.0139731    0.0165925 
N    -2.8802964   -0.9959366    0.4891458 
O    -2.3342390   -1.1882695    1.7526505 
N    -1.3216324   -0.3252672    2.0152830 
C    -1.2188533    0.4044618    0.9569678 
H     0.8564979    0.2189930   -0.4331704 
H    -0.6398327    2.1581018   -1.6984891 
H    -1.9039333    2.7284110   -0.5837807 
H    -2.9030982    0.8087187   -1.7240562 
C    -0.6306365   -1.7427559   -2.2875505 
O    -1.5232311   -2.0183816   -2.9641401 
O     0.2807053   -1.4827241   -1.6192421 
