16
Energy = -682.2621185440
N     0.8801067    1.3476142    1.1619311 
C    -0.1893801    0.8015504    0.5343919 
C    -0.9532159   -0.2285714    0.9699094 
F    -0.6178092   -0.8481383    2.1133511 
N    -2.0317417   -0.6588801    0.3203694 
C    -2.3751246   -0.0820255   -0.7817964 
C    -1.6281882    1.0196866   -1.3506101 
N    -1.9257658    1.6035748   -2.4317357 
H    -1.2796175    2.3532183   -2.6577071 
O    -0.5173329    1.4147082   -0.6141403 
H     1.2851778    0.8002554    1.9012408 
H     1.5270404    1.8574754    0.5847659 
H    -3.2498007   -0.4199281   -1.3221906 
C    -4.0704849    1.0572331   -4.2347069 
O    -3.7345130    1.9227848   -4.9237033 
O    -4.4535962    0.1787584   -3.5849421 
