15
Energy = -698.3496400078
O     0.9153846    1.4652441    0.2793419 
C     0.6551275    1.7884564   -0.9755515 
N     1.4644608    2.4206348   -1.7273298 
C     1.0757015    2.7108666   -3.0528757 
N     1.8172212    3.3318992   -3.8675957 
N    -0.1961937    2.2902026   -3.4892110 
C    -0.9129070    1.6758354   -2.6704840 
F    -2.1172103    1.2430439   -2.9872736 
N    -0.5834396    1.3684812   -1.3814089 
H     1.8039781    1.7953889    0.4893124 
H     2.6931347    3.5655435   -3.4088066 
H    -1.2035091    0.8717728   -0.7648098 
C     3.9699370    3.0749666   -0.4811815 
O     4.4224685    3.5748612   -1.4139799 
O     3.5626518    2.5812719    0.4899216 
