18
Energy = -584.3127666232
C     1.0613277    1.2740372    0.2609271 
N    -0.1623804    0.5623401   -0.0471133 
C    -0.9375075    0.1253662    1.0124687 
C    -2.2989199    0.1131600    1.1277987 
N    -2.5474965   -0.5204365    2.3458387 
C    -1.3558577   -0.8139716    2.8798618 
O    -1.2824281   -1.4124086    4.0670848 
N    -0.3537267   -0.4508063    2.1212060 
H     1.7181873    0.6319983    0.8425659 
H     0.8966055    2.2004866    0.8279969 
H     1.5693953    1.5195469   -0.6716459 
H    -0.7213540    1.0331087   -0.7399293 
H    -3.0887699    0.4641343    0.4885125 
H    -3.4385707   -0.7130227    2.7626798 
H    -0.3496515   -1.5937873    4.2399671 
C     2.1522181   -1.5275413    3.0811472 
O     1.5778160   -1.8881715    4.0244563 
O     2.7863909   -1.2002635    2.1767066 
