17
Energy = -584.0594054649
N     0.7577996   -0.0981086   -0.1010419 
H     1.2052679   -0.8154099   -0.6506844 
C    -0.5418273    0.1842190   -0.3244838 
N    -1.2187200    1.0865929    0.3223264 
C    -0.5914965    1.7984748    1.2871231 
C     0.7277112    1.5875104    1.5906581 
N     1.5463180    2.1725583    2.5026210 
C     2.7167199    1.5632757    2.3451949 
C     2.7368841    0.5607780    1.3398505 
C     1.4507438    0.5767002    0.8522968 
H    -1.0252856   -0.3970375   -1.1009614 
H    -1.1802042    2.5440854    1.8093720 
H     3.5607368    1.8466840    2.9620287 
H     3.5713003   -0.0547040    1.0445596 
C     0.8705120    4.2059217    4.2275479 
O     1.9297234    4.2238705    4.6922627 
O    -0.2117954    4.2535690    3.8176615 
