17
Energy = -662.0888696987
N     1.1744355    1.6262609    0.6079370 
C    -0.1467941    1.5726645    0.2588750 
C    -1.1787432    0.7391458    0.5825580 
O    -1.1990688   -0.3453035    1.4356814 
C    -0.2124483   -1.2361005    1.4077947 
O     0.7597742   -1.2006784    0.7060210 
C    -2.3500386    1.2488830   -0.0480611 
C    -1.9563281    2.3533076   -0.7134562 
O    -0.6158865    2.5528132   -0.5352047 
H     1.5907427    0.7044878    0.6417427 
H     1.7000009    2.2629390    0.0292334 
H    -0.4237795   -2.0216443    2.1421639 
H    -3.3415143    0.8309039    0.0005271 
H    -2.4629351    3.0773167   -1.3251232 
C    -0.2789963   -0.8440141   -2.1314450 
O    -1.0980585   -1.6129023   -1.8541397 
O     0.5361580   -0.0825761   -2.4370222 
