17
Energy = -658.2704954295
N     0.8016004    0.6780361   -0.1854070 
C    -0.2652986    1.4869034    0.1156714 
C    -0.7391457    1.8280915    1.3281736 
N    -1.8980460    2.5557970    1.4780168 
C    -2.5090548    2.9333532    0.4244448 
C    -2.0362414    2.6332678   -0.9292962 
N    -2.6762527    3.0623336   -1.9329818 
H    -2.2643376    2.7927634   -2.8199236 
O    -0.9056807    1.8892594   -1.0147781 
O    -3.6319040    3.6431051    0.4806612 
H     1.4085907    0.4930448    0.5955453 
H     1.3072682    0.9468794   -1.0153582 
H    -0.2268232    1.5295071    2.2315524 
H    -3.8818185    3.8081806   -0.4440138 
C    -2.4262269    2.9174839    4.2936914 
O    -1.4139104    2.3860438    4.4844025 
O    -3.4417937    3.4517069    4.1615528 
