17
Energy = -666.2743425387
N     1.0986773    1.3370481    0.2980494 
C    -0.2585951    1.3091922    0.2065465 
N    -0.8222880    1.4139360   -0.9909212 
C    -2.1476498    1.3391703   -1.0933368 
C    -2.9927652    1.1627879   -0.0172944 
C    -2.3881678    1.0660586    1.2249315 
F    -3.1223142    0.9031002    2.3378639 
C    -1.0251057    1.1349686    1.3732687 
O    -0.3861484    1.0520711    2.5672207 
H     1.5920130    1.6784814   -0.5086068 
H     1.5035778    1.5059889    1.2003713 
H    -2.5492538    1.4301140   -2.0965079 
H    -4.0666133    1.1056343   -0.1207422 
H    -1.0390462    0.9474807    3.2640941 
C     0.5435816    2.1028216   -3.3083881 
O     1.5560853    2.2187630   -2.7549758 
O    -0.4260952    2.0106719   -3.9297305 
