17
Energy = -658.2227138548
O     0.7113601    0.4552799    0.0475698 
C    -0.2426107    1.3823589    0.4314412 
H     0.2346585    2.0577130    1.1419212 
C    -1.0314906    2.1790259   -0.6889249 
N    -2.2303435    1.5629462   -0.1147696 
N    -3.5491319    1.6844862    0.1132517 
C    -3.6388997    1.0020804    1.2623885 
O    -4.7998319    0.7717777    1.8570450 
N    -2.4813210    0.5356809    1.7994419 
C    -1.6270733    0.9359810    0.8794712 
H     0.2815295   -0.2707268   -0.4098579 
H    -0.8252943    1.8857819   -1.7180124 
H    -1.0012756    3.2634872   -0.5791680 
H    -5.4954187    1.1787328    1.3253954 
C    -5.9046416    2.6875267   -1.0565074 
O    -6.4789974    2.2063367   -0.1694987 
O    -5.3884339    3.1861993   -1.9587034 
