17
Energy = -658.3440268354
N     0.8151484    1.3897902   -0.1256478 
C    -0.1428599    1.0198828    0.7539614 
C    -1.4666698    0.8242144    0.3612230 
C    -2.3419561    0.4813378    1.3733798 
O    -3.6288915    0.2747076    1.0855131 
N    -1.9874206    0.3388264    2.6445013 
C    -0.7073624    0.5475717    2.8955804 
O    -0.3478088    0.4041522    4.1684255 
N     0.2427787    0.8767340    2.0308644 
H     0.6307651    1.3390839   -1.1086998 
H     1.7707270    1.3675975    0.1816791 
H    -1.7988882    0.9360037   -0.6599415 
H    -4.0574855    0.0509845    1.9199653 
H     0.5985067    0.5833366    4.2257109 
C     2.9622409    1.0987100    2.8847117 
O     3.3592671    1.2656247    1.8119855 
O     2.6293010    0.9352003    3.9817614 
