17
Energy = -658.1140214966
C     0.8846956    0.9148183    0.7218553 
C    -0.4105642    1.5106998    0.2845740 
N    -0.7529490    2.5837901    0.9019772 
O    -1.9142476    3.2309913    0.5986444 
N    -2.7733841    2.7873529   -0.3724150 
C    -2.4586956    1.7258252   -1.0005929 
C    -1.2612665    0.9538785   -0.7632780 
N    -1.1249570   -0.0904128   -1.4969960 
O     0.0072225   -0.8216712   -1.2724375 
H     0.7379565   -0.1015152    1.0868275 
H     1.3040872    1.5346839    1.5117191 
H     1.5829475    0.8555312   -0.1128014 
H    -3.1591750    1.4015743   -1.7623244 
H    -0.0816310   -1.5413550   -1.9062456 
C    -2.3709072   -1.5518452   -3.5295572 
O    -3.3076357   -0.8935879   -3.6737822 
O    -1.4479103   -2.2477601   -3.4247092 
