17
Energy = -662.0512572621
O     0.0924483    1.2710724    0.2871593 
C     0.7686302    2.4250419    0.6848308 
C     0.1612066    3.1051662    1.8945164 
O    -0.1641897    4.2673593    1.8980307 
N    -0.0317915    2.3689358    3.0696502 
C     0.3965195    1.1096792    3.3998085 
O     0.9770000    0.3441833    2.6592740 
C     0.0906532    0.7592752    4.7710202 
C    -0.1520981    0.4539117    5.9051946 
H     0.3698688    0.5723967    0.8940175 
H     0.7095118    3.1561351   -0.1200991 
H     1.8290559    2.2352569    0.9005746 
H    -0.4808423    2.9050214    3.8024472 
H    -0.3652322    0.1742421    6.9104612 
C    -1.3929056    5.6292676    4.1144122 
O    -1.4456740    6.6390531    3.5625961 
O    -1.3568480    4.6295741    4.7049601 
