17
Energy = -654.5387884273
N     0.9160160    0.6508083    0.1137096 
C     0.0865800    1.2575239   -0.7498745 
N     0.6332389    2.1202303   -1.6193865 
C    -0.2458166    2.6760424   -2.4479593 
O     0.2255573    3.5403770   -3.3376667 
N    -1.5448718    2.4635867   -2.4859837 
C    -1.9673703    1.5853232   -1.5682522 
N    -3.2839732    1.3250417   -1.5470113 
N    -1.2059954    0.9508026   -0.6761559 
H     1.8913033    0.8816948    0.1130963 
H     0.5313737    0.0273843    0.7962061 
H     1.1794971    3.6030561   -3.2032506 
H    -3.8788121    1.7690359   -2.2192332 
H    -3.6438904    0.6570115   -0.8940857 
C     3.3686202    2.7683133   -1.7046191 
O     3.6311730    2.0718779   -0.8200514 
O     3.1795626    3.4851820   -2.5946167 
