19
Energy = -622.3560256596
C     1.3928081    0.5246223   -0.4208503 
N     0.2834582    0.7022815    0.4901798 
C    -0.3562789    1.9206692    0.5711877 
N    -0.0847997    2.9691826   -0.0874140 
C    -0.0988175   -0.3655778    1.2593354 
N     0.4307672   -1.5439159    1.2717584 
C    -0.3198562   -2.2318734    2.2106840 
C    -1.2655226   -1.4216096    2.7135212 
O    -1.1304049   -0.1986081    2.0983241 
H     2.2033849    1.2127187   -0.1711967 
H     1.0722069    0.7065444   -1.4489365 
H     1.7481808   -0.4972214   -0.3304050 
H    -1.1730449    1.9431727    1.2862901 
H     0.6937882    2.8493358   -0.7294037 
H    -0.1179778   -3.2622022    2.4512477 
H    -2.0515413   -1.5095484    3.4406716 
C    -1.7611253    5.1009037    0.5931163 
O    -1.2697264    5.8598054   -0.1271196 
O    -2.3008588    4.3947044    1.3366118 
