19
Energy = -626.1460044113
O     1.0811506    0.7338873   -0.1156050 
C     0.0648969    1.6100065    0.2536932 
H     0.5513742    2.5348914    0.5653270 
C    -1.1060024    1.8299705   -0.7813869 
N    -2.0007805    1.3670167    0.2744752 
C    -3.2027419    0.8535964    0.6637107 
C    -2.9521665    0.2741997    1.8980369 
O    -3.9234560   -0.2942740    2.6561955 
C    -1.5707685    0.4072013    2.2309854 
C    -1.0311088    1.1024651    1.1697768 
H     0.6892017   -0.1311584   -0.2657664 
H    -1.0397037    1.1510209   -1.6335747 
H    -1.2966468    2.8499029   -1.1201785 
H    -4.1232146    0.9591525    0.1171862 
H    -3.5131709   -0.8060706    3.3539904 
H    -1.0866401    0.0573865    3.1288853 
C    -1.5310390   -2.2454321    0.4924447 
O    -0.9711207   -1.7083144   -0.3692077 
O    -2.0739080   -2.8237970    1.3313792 
