16
Energy = -600.0298167918
N     1.4366736    0.8132839    0.4476561 
H     0.5051113    0.9735780    0.8128576 
C     1.4628052   -0.0675338   -0.4421889 
N     2.5086676   -0.5704094   -1.1737059 
C     1.7650328   -1.6715125   -1.7602526 
H     1.7826663   -1.7005379   -2.8516817 
C     2.0989726   -2.9929345   -1.2447628 
N     2.3940728   -4.0317034   -0.8529779 
C     0.4739517   -1.0151185   -1.1603966 
H    -0.1008958   -0.4976669   -1.9294103 
C    -0.3995551   -1.8079604   -0.3334907 
N    -1.1071408   -2.4148569    0.3383191 
H     3.4888536   -0.5241983   -0.9409874 
C     4.0604822    1.4942741    1.4597253 
O     3.6571834    2.2134634    2.2658199 
O     4.5193898    0.7820592    0.6665229 
