17
Energy = -661.9939878796
O    -0.1907134    1.3497843    0.0934674 
C    -0.5104583    0.0692026    0.4188261 
C     0.4508645   -0.8878849    1.1970612 
H     1.4866428   -1.1511291    0.9932172 
O     0.1241364   -0.2371375    2.4601678 
C    -1.1622303   -0.3406739    1.7793555 
H    -2.0523872    0.0519857    2.2648729 
C    -0.8120843   -1.7540045    1.2914357 
H    -0.8714261   -2.6200593    1.9391707 
O    -1.3538165   -1.9805938    0.0007756 
C    -1.1816583   -0.7692670   -0.6212097 
N    -1.5262371   -0.4552786   -1.7805849 
H    -1.9751960   -1.2326377   -2.2595862 
H     0.2119028    1.7544871    0.8686018 
C    -2.8364813    2.2741360   -0.9785940 
O    -2.4218177    2.8799892   -1.8691540 
O    -3.2844689    1.6973133   -0.0780508 
